0,02801394801653112
0,018137404199512954
0,010905394723925297
0,009078533399832184
0,01453125436166283
0,02095091370344119
0,025475824571047172
0,026903784539114517
0,02537654872906404
0,022645339749152643
0,021340759822061517
0,022702528971692264
0,025180388476250985
0,028159305514785862
0,031890356651459506
0,034646091159120145
0,0335814408657804
0,028034379331001495
0,02048993001023045
0,01438467484484758
0,01323293665790199
0,016325508465113506
0,01971655617498596
0,020899976110855308
0,020195218409974014
0,02198203738123933
0,029583873159753804
0,038930315920740206
0,04510873192982685
0,045825180682851865
0,04222012279308843
0,03749939300259558
0,03244548007174576
0,02367147463825948
0,010226713247356512
0,009956711279334753
0,022771669298047647
0,030543167923501698
0,03396125711213978
0,0359510822807698
0,03590049288848263
0,03289618294408386
0,028628271154135684
0,02555230776330825
0,025533623055635522
0,028916980136188895
0,033222993494148166
0,033815304067876695
0,030720836128082726
0,029753631929598595
0,03263672103996372
0,033306152103477774
0,03115644256271785
0,034968225247389344
0,044431503220746016
0,050913270243097844
0,0509604883062733
0,046322064503917064
0,03928582490960782
0,030573646739145078
0,02528506509568751
0,03155556965741753
0,040487560737395206
0,043764414934012605
0,04179195559063788
0,03760835837301674
0,03185428823362295
0,02355595740294023
0,01561505723030628
0,01292396767979067
0,012972645712590977
0,011445558420904105
0,009631125143766416
0,00901405505784071
0,009072260202489505
0,013284862235929108
0,023706257141917705
0,036031814886403175
0,04571543131995668
0,05076060476166189
0,05215225099354924
0,05131817466644519
0,048217607612320336
0,04295093608290776
0,03759721031671423
0,03425524132304657
0,03171206026318712
0,02964403696456569
0,027606434468847148
0,021663209433540647
0,018333820413167744
0,03348388971710458
0,05061812369036526
0,05710342475305639
0,05169159091156389
0,039728390386813375
0,027325590272232542
0,022024616337676817
0,03411569129364038
0,04941179683386566
0,054363546702901965
0,0475699998567595
0,03744944110346159
0,032631055023445404
0,028682273604646848
0,029048273347450578
0,04278833154543304
0,05643168910611415
0,05831489338332454
0,04800692640703778
0,03183520828346252
0,020135436107321294
0,024450370624848408
0,03554670388827832
0,04173563533833525
0,03915814430245104
0,029101545426717904
0,01498297751357662
0,0028294093100748588
0,02470275165591438
0,04685472502206075
0,06199900916368878
0,0650353471567205
0,05755474633862758
0,044818958442083126
0,030422231643116776
0,019606384633472133
0,03203224851204998
0,05632012663341252
0,07664221789385312
0,08826985377094011
0,09288243544344628
0,09250717003168468
0,08605032885422062
0,0718488651966617
0,05105060714888905
0,02786206316622704
0,010951744406736352
0,0218353892605074
0,0376149675795785
0,048450957415276545
0,052390126474463304
0,050321560489679305
0,04493079276518843
0,03866524063313275
0,031646023141198916
0,024852723287342154
0,021231363058336786
0,022649024865724156
0,02743542283701691
0,03374564939683442
0,04085871094799517
0,04689596263083385
0,04855215849505611
0,0440040632198344
0,03551286948553413
0,026725288207213375
0,01762346899218416
0,005399191087917752
0,01136908108380186
0,025601325612812108
0,03338341424250768
0,03371858372054026
0,030310107869474464
0,026675342846625268
0,022041456327390976
0,013545900692417389
0,002926789720324275
0,008511323067651382
0,014314018594588097
0,015959286883501123
0,016437589516804862
0,02012336154532231
0,02621208961042027
0,029938670670827366
0,02800784441759232
0,02198214465888775
0,017481652483545673
0,016402814829942866
0,013551666680490456
0,008275825151191279
0,008437878145560154
0,013003594472226456
0,014681827741809511
0,012858667388305623
0,008655168381300917
0,006997699367299295
0,01127376017332991
0,01224913183348534
0,007428330715498368
0,006802750410454738
0,014860916262040105
0,01778332157847106
0,01431597582918112
0,009212380131116731
0,008873195719150934
0,016497008371809334
0,03011950791095881
0,04331816401479491
0,05029251103899767
0,051642874751999746
0,05295164987960976
0,05398403030441145
0,048053460982357424
0,03350245707961083
0,021593552344230698
0,027916509291925917
0,03513158416157115
0,035790709657726544
0,03685532245202977
0,04261996674121681
0,046103717257636144
0,04218687453877086
0,032793126790826035
0,023728775983785456
0,01761157983878403
0,011704090769811236
0,0075845647313046265
0,012869535386376748
0,017627824959885435
0,016358108067480656
0,00975529380186131
0,00412619735551667
0,012470680572295523
0,024252087549869353
0,03628979255636436
0,04590346544849427
0,051526223139042544
0,053831507070854545
0,053028962665210254
0,047499506184149484
0,03834078671235984
0,030215368443139975
0,027547711204777763
0,027564294319970074
0,026580993758791353
0,025512776733751255
0,02505162746108916
0,024153752925012557
0,02331382276999433
0,023329256162709706
0,02507007558478544
0,027683012464770274
0,028032688626752414
0,02358120582920069
0,015994478572609147
0,008851165029632506
0,004427466201881239
0,006740213989614203
0,014632575484825449
0,021065167115624818
0,023948165897605997
0,02632171658727935
0,030995431561132953
0,03349374935132039
0,029383600836601322
0,021640688977435377
0,01646016477407951
0,012941672977679262
0,00963826474360754
0,020464346430319847
0,03588583861343948
0,04664632190245142
0,05146499226506291
0,053996780367056386
0,055939911705665764
0,05357937042357226
0,045103336021904535
0,033316529865502244
0,021381391345327766
0,008999199590508902
0,004474720536392804
0,016729453158438292
0,02515058134801807
0,028832002644041697
0,029688262912482662
0,029750482014269553
0,028071217572572613
0,022845060499415266
0,014585222597248138
0,008921748945855715
0,00889860217265577
0,009732283301762732
0,010779060386779716
0,012869419460420084
0,015443066269266953
0,017488522442239415
0,018437356176133467
0,01805989323757055
0,017836061422275392
0,017670136035393122
0,015579618018695294
0,011055440059941074
0,011244929495183898
0,017393673246701977
0,022544657732659207
0,026176242636359405
0,02891221371637554
0,02926003290261732
0,02598490413881834
0,020818961210294695
0,01636559766274343
0,01279291205746489
0,010881684183216495
0,011154642855641531
0,010162856485763682
0,006908130768614792
0,0063787856546415785
0,008048331283310665
0,00850708942043998
0,01234924952811928
0,017960140900402804
0,020144022874284892
0,018461471448531382
0,01581495734710232
0,016300106896047363
0,021367714662592678
0,028884104081313502
0,035708718188197666
0,04028829421917033
0,04328094448201898
0,04412183581125782
0,040591789889108394
0,03279495506977367
0,02342678967015284
0,016508141775126228
0,01580104670829185
0,022052521867691913
0,028702088462441388
0,03107075809559814
0,029734194792595016
0,02773950798118454
0,026135456937329927
0,02246256113010178
0,015616426432606306
0,008154413147378078
0,0044949872914827015
0,006444609666438031
0,007588318556631342
0,00876931931006374
0,010476515551729385
0,012568101895248231
0,015580327780532355
0,019488976386040288
0,02295934562790019
0,022991267805602518
0,018074154184312446
0,010500087748768254
0,005974524606952792
0,0053838711538499685
0,01160478888696781
0,02597996555931454
0,03973811680011753
0,047313554661858596
0,04942978058542546
0,04966779284906731
0,04761613218132948
0,04080284067452114
0,03054686901103916
0,020479052957706124
0,015444430724070635
0,020598502773206254
0,029895401374651624
0,03670328987883537
0,038603706365128714
0,03553422579806266
0,0285836643355204
0,01763000680766538
0,004015757267125613
0,010575225658934219
0,023330431803321904
0,03415488247249721
0,04386780438896822
0,04981072927711303
0,04871529909303293
0,04098310762180262
0,030141202087117052
0,019686010746182953
0,008708913295266114
0,009489049933316559
0,02307178343637232
0,03390759847890981
0,040182330994579005
0,042929563316713694
0,04223425327830501
0,03705255881682792
0,028424272397158046
0,0190232613931787
0,014958772577032384
0,020968479882411673
0,02878162500317563
0,03375041221328323
0,036826383982486166
0,03870210150940819
0,03826791223197768
0,03448485715465135
0,028956852567054582
0,024653030473103858
0,02376945596536587
0,026781292718838955
0,030609827887245686
0,03019305429910632
0,02429907953506768
0,01736000864449675
0,01673832854970439
0,01982912259297634
0,02049793320542429
0,02096067259192232
0,024731882949068102
0,030293529589603442
0,03464801330048067
0,03681787432681821
0,039114856751751345
0,0428695620635334
0,045736940710693376
0,044602074769756896
0,0396725715900256
0,03349254870810787
0,026655040147998077
0,016709403485361544
0,004383044749785453
0,009377410265967223
0,018529319933519146
0,02656722663402398
0,03504426177917815
0,04106284587321861
0,04149378558210588
0,0376820858839893
0,03257163583551757
0,02738964883911316
0,024107817608097118
0,029581557263417317
0,04164618145847595
0,0520305736765693
0,05629633886092849
0,05574745490220192
0,05441792844529399
0,053652838916040675
0,05071263757076918
0,0431043702258441
0,03220561609704632
0,02201259359123654
0,014512970719107295
0,008301463399016914
0,00010537572057741864
0,010037783118265172
0,019437922939970615
0,026100430704742893
0,029858313511471835
0,03352009822951957
0,03787284021077952
0,04091758263133906
0,04044753788448363
0,03675393191557702
0,03152992440540892
0,025342117015599002
0,01807310667183674
0,009826075262474388
0,0019713789474354293
0,007074040636846095
0,013362680108043685
0,016694265735993828
0,01505115189339666
0,00906600943222573
0,0004770197619279295
0,00854136785892436
0,016600346147066767
0,026103507482320314
0,036112013696373964
0,04361781110960583
0,04777231884513917
0,05190962940497737
0,0576368246110034
0,0612189134292519
0,06037835000477618
0,057503977021942314
0,05509842979299511
0,050794220003078774
0,042196629886841426
0,03238932613572439
0,029015986566333977
0,03063022984580138
0,03151714245117799
0,03422912645105586
0,0405953590203217
0,045825472934628485
0,04645552310205462
0,04352809919353437
0,039356153900006186
0,0352972029206397
0,0322212465893836
0,028885719546039114
0,023895872958206957
0,018341362960210446
0,014851561372321614
0,0108873518236789
0,002125826459340828
0,009410208711591985
0,018190393257949505
0,019996855706302764
0,017659678695180252
0,020379538121586497
0,02469691786632358
0,02327126429921121
0,0160752129268978
0,009211528231711954
0,0076078460130956736
0,01309799116756419
0,023187103408266272
0,03151390626691141
0,03555168466781773
0,039933284927718984
0,04896229199079174
0,05705478773846948
0,058542882009526065
0,054726973488163605
0,051355140859087746
0,048847192037173616
0,04309825908153707
0,03326147752876006
0,02265727274537725
0,01503584609938487
0,010370988810847073
0,006358474565776453
0,002771360778413108
0,0024753598779817154
0,004164794312193207
0,005313788420322918
0,006610445883911577
0,008333764019643574
0,010701209262323545
0,01356693386708264
0,01669189635351052
0,01956983394661397
0,02272044056009069
0,02567787815151454
0,02756958849807069
0,027097788059147216
0,02342758874971109
0,01797883667782939
0,013652497014999033
0,012051366350835426
0,01222392085224396
0,015210770654730135
0,020860090349066805
0,024816867971087272
0,026261049945419206
0,02721767663035931
0,027278373603009092
0,025293582622656623
0,021687432889517345
0,019398655420571675
0,019178948534030564
0,020606960500415855
0,024214988760093127
0,029497583776200657
0,036941665169503674
0,0468034594774224
0,055639692548553894
0,059390985509485336
0,059556361239394034
0,061097067536635685
0,06293611228991706
0,05852116636544996
0,0466583039345402
0,03636375796494806
0,034860141757042544
0,03246472546739816
0,023249591498585142
0,013439780291963424
0,011801549100944999
0,00878839179641735
0,0010957059073800112
0,010521381238083263
0,016053896612833688
0,014475518998964418
0,009225311603899557
0,009212392668071216
0,012907560370022058
0,013160939671947777
0,008656565889837958
0,0016695218477726557
0,005261388457010682
0,006249921107360063
0,0016163083664912576
0,009903206776556905
0,018232842873688013
0,01972606249052086
0,014396251832398716
0,012037252337903197
0,016135909719496737
0,015580680738215804
0,008731653275744688
0,0021109031394313717
0,002258909975844141
0,008806563119825889
0,02092388373892358
0,03145346686775005
0,03799614127707795
0,04527286662116506
0,05428062534273491
0,059938469641591774
0,05866898501283308
0,05449867693853796
0,050876874053239686
0,044292457425554946
0,03377897957141077
0,02428580181250718
0,018443089635362245
0,010244894929584462
0,0033617204472415774
0,012706749112067348
0,017488787478284397
0,022233296357202226
0,030694322418962826
0,0358750860539974
0,033333951726944484
0,027408027078885993
0,02416091037700471
0,019020753324637527
0,009549085430394288
0,009133008259031534
0,016738281062718147
0,0183645429385654
0,01892680217376649
0,02287344434123221
0,02438525876446749
0,02037967563572767
0,01666231829108572
0,017591410149518052
0,016509143541425717
0,013765089959612297
0,01533518151614845
0,018707906760203227
0,023657280731523567
0,033643487499139445
0,04349348351724928
0,04758036681990457
0,046512415231130665
0,04435131612616776
0,042013360335090934
0,03771014090685559
0,032102787831555755
0,027050708982842463
0,021825639922213175
0,015604905821213978
0,00964790144229747
0,006394396873301678
0,004290633399926935
0,00556478296524592
0,009829606376764667
0,012844275144827104
0,014429699746756225
0,017248716199510617
0,02125251193980211
0,02432854306939565
0,02511179905758285
0,024657636013323343
0,025723090320940546
0,027010803815098752
0,02645816762772118
0,02621536337976958
0,028486022593521402
0,030421859188362068
0,02755737730650735
0,022343675366706606
0,021056151369169995
0,020678948619223075
0,015014588358488793
0,004454497618408917
0,005891680322559917
0,009769164698524478
0,0068725043584351815
0,005529940643615789
0,010976033058139177
0,01268015064663114
0,008773005743230677
0,004593162674928755
0,009469548330235588
0,013245499287711033
0,01302216044461587
0,01160308288638498
0,013898626876067993
0,016877851428902007
0,016603618544603144
0,01389383031762892
0,013054442586902752
0,014447448416125285
0,01440968248181615
0,014031695401142871
0,01671917651230172
0,019510230283250617
0,01917306155072051
0,016494515738249192
0,016027038255897585
0,018243817099805725
0,01881196131568926
0,016206707890566264
0,014826443066099508
0,0190021157071311
0,023533980185958255
0,024034984707267414
0,023776528166062415
0,02805699257070585
0,032567116605763606
0,03120355436977575
0,023622669864523375
0,017053638810707858
0,016544270766036217
0,01472284604569657
0,009075515709471096
0,006219145931485592
0,008421379810119594
0,0068286044368099106
0,0056969159125452255
0,0088640365183504
0,009460771410062843
0,008931135212209345
0,013594758792852848
0,01664522202478373
0,01307768737712694
0,0035173962422033844
0,008233812189137536
0,015220567016534362
0,015731355190643233
0,01690649007771311
0,02497561232510698
0,03222623679451126
0,03403070012675321
0,0350894324548403
0,04091564573686015
0,04872324622557893
0,054895083689728105
0,058772645338620526
0,06045082620529469
0,05860252226192373
0,05490515895928913
0,05333058598743383
0,054203008250887794
0,052366385271623475
0,0468900076772972
0,0427568489170362
0,042348587398437554
0,040552943167969716
0,03458444774883999
0,02647767559473559
0,019530989106330693
0,014223320301906262
0,009050754297778976
0,004597288609191627
0,004141736365307708
0,007018752812596426
0,011461742550552052
0,01551855267911691
0,01804253634402804
0,022515952480173993
0,029208866968766154
0,03368004631679731
0,03321082406123113
0,029431415319825564
0,0272058143225733
0,027839180216013913
0,027357261944390247
0,023666171766770078
0,020501427052598664
0,021287053209079906
0,022005159994186094
0,019496981743746054
0,014844096636968713
0,009590847413425476
0,005861416476178645
0,004027055252724965
0,0035974389266602387
0,004407266510266468
0,0036912968179150115
0,0012032104129527225
0,003144607706967018
0,006528363616708279
0,009711367718116844
0,012495521395819508
0,013823462414683253
0,014011025742834188
0,012795054651009018
0,01183741959501521
0,014251247927251067
0,01708508252632701
0,017871759499549753
0,017295861518665193
0,01638699911585046
0,014374860948686313
0,0121027710099332
0,012601666671184222
0,01635509948861261
0,02054131709797011
0,023303440298646276
0,024402882685540292
0,024295588604275744
0,023336074742439785
0,0244145491158656
0,027762703359716066
0,03242172581809188
0,035865465845805695
0,03553388108599612
0,03134072341807318
0,027399161847626318
0,027891607191993975
0,029122699434587875
0,02918604571499384
0,027868218816648995
0,025041693545005832
0,02096472886340497
0,016815990392990927
0,014952797021073955
0,012839669960073623
0,00754960771129897
0,005278390778134554
0,011249893035977438
0,012430759131208587
0,008289804293479688
0,0076673052034185495
0,01013110467137439
0,009415341005531905
0,011464572222295003
0,0181541106803123
0,020288050395516375
0,014804944344338936
0,00885040416566901
0,013861951085504384
0,016383257540841457
0,012535351432267252
0,013435859316692004
0,018244018063227094
0,017851717924780724
0,014735673138166662
0,01706252021234664
0,019059568589216896
0,018596690144625748
0,023274183084180767
0,03088482772753465
0,03257300293604942
0,027508466414112014
0,024388765851386388
0,025706803097977488
0,024238899987575772
0,02270127930949143
0,02657658973911542
0,028516869341087835
0,022990409922819408
0,015461703669161324
0,012247895417421382
0,009022005901008007
0,003963006204202274
0,008499206370724887
0,010006677150062
0,007057747500591648
0,011254533032610758
0,016471201799007757
0,01782048452808582
0,02275867678357038
0,03032586644226062
0,033072043217508444
0,03078648335812497
0,03036269113103438
0,03209681425569404
0,03036436549295841
0,02828818373476961
0,03218901793117685
0,0359341399616246
0,03270873728402558
0,02697287212068422
0,02516299864702064
0,022718763483808583
0,016889114372822166
0,014845258307213182
0,01793568267677076
0,017606665893448285
0,01326374113441338
0,010488573051519807
0,011843949998527536
0,013517886014541175
0,015331917797358426
0,016708583392229425
0,016556650973145744
0,01727433119323916
0,017331007193451813
0,01369095668550877
0,011696220689744664
0,015937089780061146
0,01609193862540145
0,010968510561055491
0,010809734402652496
0,013691773872335732
0,010016759810266706
0,004311065130642456
0,011110699275417886
0,014355924983632213
0,013131175543916481
0,013853309215848411
0,015416279585619745
0,012841448100604232
0,013703739096868076
0,020281235255149136
0,022978550203190704
0,02026861819816775
0,018882878987327538
0,020053529162658533
0,017880334025481042
0,014073541572660655
0,015070995935532933
0,015993042772038366
0,013046366432687409
0,011066821351920173
0,012258149236698044
0,0102229391802717
0,0049029685059126145
0,004135325223104015
0,005658893138295032
0,0054268713137992815
0,007830992255495118
0,009788555330914621
0,012744823198805053
0,01811275940494419
0,022949121566513554
0,02552872248282538
0,027803978096036176
0,02891166352867425
0,028397320026216952
0,029522323181706746
0,03368224476306015
0,037326105295873234
0,03853114700994204
0,038970077509257586
0,04015635570460544
0,03976327813953785
0,03808255400073519
0,038447206859543684
0,040168102970329786
0,03920284201720564
0,03733563823526368
0,03907941635696595
0,04049411487773256
0,03706278319697162
0,031287410014821646
0,02813065879420096
0,02702664113666338
0,0259030087171511
0,027406395013693626
0,02893674417421063
0,02624631175291945
0,020255136838113266
0,017220359854510155
0,017385220222199318
0,014733584144007572
0,011236171695741206
0,013554619675344286
0,017185936684171343
0,016508457125021334
0,012159978918317157
0,009739483952772784
0,011239044873219733
0,011269320007654304
0,007975550537782584
0,006308321286614696
0,009139056990021526
0,010849238186616608
0,011800035641764925
0,013835153903218707
0,015296624487522868
0,012909419575572024
0,007516820129816761
0,006562509617695744
0,009780736304215708
0,009042961092227998
0,006319561407179323
0,009579272322722446
0,013835264206761396
0,0138738677613617
0,011558325264282457
0,01126949211833522
0,011290703164394171
0,008294606835017485
0,005757588923747936
0,010739577629329674
0,013603103434728227
0,011701586660229411
0,010236971361215663
0,012681328859011774
0,012335472996045716
0,0066865998696338585
0,005327139090075786
0,012080635345623453
0,013512201822539328
0,009345973787771023
0,006862355896455131
0,010608549835405575
0,010487471535939477
0,0047361968098734155
0,0030797663623762283
0,006938376702417225
0,0068664501800496745
0,006069350639947454
0,006524042832427802
0,004496229320437746
0,002259773968462131
0,005473957847162878
0,005389924614077983
0,004410899081721326
0,009255601447635016
0,011812045270172359
0,0076913681858992965
0,004658318795063269
0,01179253819693768
0,013680594417234862
0,010804384242953134
0,0140763552786363
0,018804599634726377
0,015858591574651755
0,009061760051544195
0,013787662042826604
0,018997292198349218
0,018181745022913753
0,018079041631382103
0,021754722325720004
0,020466050332615837
0,013548183535826796
0,013409588404014648
0,019018223699316383
0,018736976733834593
0,017413976719737916
0,020397819746098743
0,0203792681087944
0,01538117470368688
0,015234668884690172
0,018607368860378965
0,01656721338859578
0,012661216006918009
0,014935589098751886
0,015616871484870006
0,010854806763137837
0,009238607955319448
0,011755312881738676
0,008858578509942426
0,007604086382840355
0,013972883592443672
0,014700824649624949
0,007441458176365048
0,00362106312345709
0,00936967094425992
0,007374911045502101
0,006943836764169178
0,013548464653001196
0,014479425153018866
0,008142818752439586
0,006683949961577325
0,011508770306628165
0,012432066881256438
0,015445866746915433
0,019669351919302188
0,01764794899934281
0,012067186961136444
0,01588196920880901
0,01940169118299355
0,016580606206907333
0,018683781773911105
0,02586933239100701
0,02631833095199208
0,02101231664998506
0,021212591507189384
0,02481760084629516
0,025006362525973058
0,027393584478863964
0,03227085698212007
0,03200056709352512
0,028041580986351712
0,029707968714268024
0,032548160874637334
0,02950369354791396
0,02864488545470929
0,0346774392093423
0,03619188851966028
0,03219126964237581
0,033319216182399636
0,03611635625126131
0,030650560406167773
0,026333234873863465
0,035126107688213414
0,04023879311275705
0,03565555556546025
0,032569030066894746
0,03541077981592867
0,032289603624298266
0,026362896178973763
0,031182263906627993
0,03805904317031448
0,03597186936593303
0,031090114333556285
0,031112182187538414
0,02998700836313625
0,024789490478250204
0,026658751233284893
0,0325921733145008
0,031189186679622345
0,025277881566756248
0,02394791516197551
0,02364953621344625
0,02027226649092177
0,020506044022545605
0,024432214193067677
0,024125523381076402
0,020639321538571634
0,019960961387655747
0,020683550326492574
0,016928422468430866
0,011742444716634524
0,013956667303565026
0,01726155246999295
0,016532073460748222
0,014226882536856405
0,012886261557332175
0,01057516066481811
0,008139377959794752
0,00886664726887361
0,009727815748428532
0,008299725506995037
0,008607571790177217
0,010913995318508903
0,010950072981345291
0,007700363784223249
0,004407949759471714
0,004849533906345942
0,004532524089965577
0,0031472176550589592
0,006474756774408991
0,009452188618020253
0,0090350979413871
0,00499305952970846
0,0005760470233357011
0,0037077543233943406
0,00445020168636405
0,004437712333549483
0,0054495810145451995
0,005843348313646068
0,004505333161263092
0,002724682905936286
0,0012623221406176388
0,0022349429570831646
0,004575969328950806
0,005750536178799129
0,004657275074154637
0,00280244740691417
0,0035611669000246145
0,004307771657090461
0,0027385404149441283
0,002456990739101727
0,006072276160069559
0,007983763591971496
0,006669623827426734
0,003944522896264646
0,004569528387175056
0,005537021904958095
0,003480409916808365
0,0021483939345530935
0,005388281961249842
0,006593129740385635
0,006216251637398343
0,0069176331489461534
0,007565714590055544
0,005651843109033176
0,0031462243407401973
0,005490115821686364
0,006748137527879224
0,005529320930519282
0,008059274253918844
0,012083054102223864
0,012194008745122728
0,007366506891575623
0,003367195852047875
0,00679270813842258
0,007703026286709129
0,007046954613642621
0,01032788315313896
0,012764648361317361
0,010193259416409568
0,004882452330258224
0,0070103596254750275
0,01126895356767234
0,011480983689346911
0,009371077592068606
0,007574268321309029
0,008347642022675975
0,008277120228753957
0,006676762483753608
0,007373432624909916
0,009919664899200552
0,010007471223660495
0,007637765479748483
0,0069756890623995085
0,008700436620976255
0,00815223543003497
0,00682701462852817
0,009915735360327653
0,013425671983575933
0,012831028505549064
0,008793901667143418
0,003682592896507197
0,004298006977073711
0,009115891670148717
0,011820130111847018
0,0100374266385145
0,005675554297035425
0,007051494356305377
0,00929716511931438
0,00635371973543249
0,004290535308640916
0,009983924017741482
0,011560507301464523
0,008114389296427152
0,0064586494324518256
0,008429184181195804
0,006206118372314679
0,003775914589858681
0,008493607110183696
0,009030635452639369
0,004908409738616227
0,006486854618868488
0,009319299852657292
0,006106233454408888
0,004296853951151091
0,009416606516151203
0,009834449929418657
0,0062753187631014815
0,006913258547834364
0,007853795554868868
0,0032410362646723766
0,0063481916166226405
0,01217960250933683
0,011814547108311561
0,0061894938930022
0,006038468297630058
0,008143507616190648
0,004602721962113249
0,004450688311020291
0,009982881897203541
0,010522680903309434
0,006118466178350967
0,0031866994770129884
0,004215328115498439
0,0024936419354909126
0,0027541204900449093
0,005646877440626755
0,005617346076861279
0,0048543862726902875
0,006840483856222801
0,0067461282042340885
0,004439899808253535
0,006829037301919594
0,00899823797365571
0,006472026645170514
0,0017222655398848282
0,0036800441725416294
0,003638867310995724
0,0027021886215958728
0,005478569451131655
0,006149047927780661
0,0035434113913978263
0,001452624724771046
0,0023414856149738096
0,0005653177725069916
0,0032753106029319587
0,005894501934181859
0,005183367398233107
0,0019031923159773315
0,0018766753524971187
0,003966133603641408
0,00560798256855615
0,006528407183776217
0,005374250336240699
0,003766857580951256
0,00534745746584057
0,004053001615084489
0,0026447988346797054
0,009955520141389004
0,014133999775710018
0,011407281307995079
0,00336132165696304
0,004467630581369661
0,006194300151212404
0,002045808739609112
0,007124457725017389
0,011414164647422674
0,009339480772759381
0,004981014377263077
0,006315848185277934
0,006294298807137155
0,005467406492572946
0,01039435234525439
0,012224860923378059
0,007752118513523949
0,00512211346702533
0,010812290971334933
0,010301509678954275
0,004701046609021167
0,009178976218921591
0,013605528843641359
0,01100363614390237
0,00689573528414125
0,00937851792616289
0,009039556457389722
0,0058787983238834845
0,009051098334185307
0,011787379867142447
0,009194248599770551
0,007471092170488097
0,00913767874174074
0,00770037076414436
0,006831605750971567
0,01091546045645915
0,011206086489715206
0,007605085967650179
0,0076920557739674905
0,008730834604633073
0,007189841183406476
0,00982782266490851
0,012807679793952947
0,01079468570651202
0,007911579140830748
0,010650941271548187
0,010816279792219689
0,008662003334286983
0,011927817554010416
0,014580389057845746
0,012203490488052698
0,011803778365909127
0,013982824229428923
0,012073051425517631
0,01098653900765023
0,01529294396057932
0,015225791130505381
0,010540838157830289
0,014041241038649276
0,018497934674778574
0,014520078732081282
0,00937306506773644
0,014008330475358328
0,013180544083662963
0,008596591199201777
0,01752787685153188
0,02223621957027933
0,01454699469597532
0,006423213467147802
0,016323893889242793
0,016632859772525516
0,008451381552959549
0,015758390030749574
0,021311093596253584
0,014232075764317224
0,004339905636304323
0,014010428762850715
0,013832815136364798
0,011420535507694254
0,020022899854914122
0,0211637440943119
0,008131604250384467
0,01182205129165013
0,02324696714830996
0,018339296408414453
0,008541449880386772
0,021237477094647496
0,023080694285273796
0,007417939729391156
0,014570694101706862
0,026713644208858786
0,021192745674763595
0,01474290945949255
0,025329543782277295
0,022656890003080278
0,0015601893994127939
0,024168200289144976
0,03600711254409546
0,02764766877817681
0,019253732216679906
0,027635921474589032
0,020867719712697623
0,00737988704949706
0,034610795096955214
0,04392551643030591
0,029584190384668103
0,020540006289145398
0,031193601746376688
0,019261018635163458
0,015098974753358859
0,04777207575962978
0,053311427591487076
0,02620051216975651
0,015154856302018642
0,03775939682714471
0,026893895239879752
0,031585366674089906
0,06466304977377647
0,06435132393945063
0,023463069317729207
0,03342735267497398
0,0600840656898435
0,040638850224197186
0,04814875338139292
0,09150661398776916
0,08287708669100316
0,020440578478178144
0,07791385866440353
0,11132685420232859
0,06133983946695029
0,10202695610730854
0,20846756195978028
0,20033894343142386
0,08776459590784973
0,3469506225488434
0,6849299953953891
0,9020608155565933
0,9102223927570565
0,7240112260298353
0,44623035899664815
0,20985597355223945
0,1033626717097922
0,07460357816405827
0,08321963304443013
0,10395813276021017
0,08066838013957917
0,04412289259686095
0,07716281408513816
0,08944712909866596
0,054433453139177405
0,02135193005231209
0,047346610201865605
0,04262249774527634
0,030999486120023685
0,055064782843367785
0,05984360547890586
0,031679072595526526
0,011938586264833304
0,03856615818706486
0,03865151829218786
0,027159719387567498
0,03196166859964511
0,0313217584797809
0,012049870160592129
0,014173609332213493
0,02915525566597348
0,025623184618550402
0,016661742978414103
0,022092743549725645
0,021053599026784567
0,006687271539456229
0,011112492727606097
0,018944098573975963
0,014367630107972708
0,012074245442182486
0,017187820753351183
0,01390815360428022
0,0019527572386647428
0,010513181109305313
0,014294764927848248
0,010107082280089316
0,009742275490826282
0,012906838174977805
0,008720711230674425
0,002286604260781416
0,009258819542313274
0,009895350201472268
0,00582810465728209
0,009011899644449813
0,011865323897965224
0,00859854229331976
0,001709470629702649
0,003584530690262512
0,004235742383371354
0,003559206275121508
0,006148827652402135
0,006784477851445959
0,0044334974951350595
0,0016960572059670893
0,001700071195345392
0,003880628176187405
0,0068057302876592864
0,008092721567476579
0,007078485547712969
0,005753976646833545
0,004374423564511992
0,0028910220431998595
0,005034557348271822
0,006140872768628239
0,004016331716623525
0,00024735940718360633
0,0023295483901960277
0,002829197990396942
0,00643011193776868
0,01020919775050522
0,009955229921235273
0,006299259132687634
0,005533906436454373
0,005485824432385443
0,0039368300138507535
0,009030211350981044
0,012553365740665828
0,009902770442857934
0,0059925959026488574
0,008904116844658316
0,008800344409684566
0,003471336124844484
0,008798338027414192
0,012613910603192197
0,00843147326889228
0,006766742868674414
0,013899470316119295
0,01224503522726459
0,0009047535754019365
0,012779077107334723
0,0191086719007725
0,01341815159841069
0,003449815914670542
0,013952540616953269
0,01573204472216398
0,005909957120895619
0,01010507472180338
0,019382249230189254
0,015522481512478516
0,0016047453257929413
0,013900908814323428
0,01845959586188631
0,009762012915438389
0,006879729826413647
0,01833027959743891
0,017944660458427707
0,006363426949563045
0,008699402269420913
0,015439490900221117
0,009809355482749605
0,004610613537644095
0,016393391377795986
0,01827315339154764
0,009484771532107184
0,0032907023434043197
0,010435560031366663
0,007862233134637036
0,0027220472923262856
0,011429572980498317
0,013906507067657519
0,008460353420892897
0,002406511680982171
0,007230562299675036
0,006835707111843995
0,00467841843380521
0,008265142548074535
0,0095945475526358
0,0065953861657251376
0,004874251140809598
0,005606548497374724
0,002424531996656497
0,004061389969857727
0,009240441824391887
0,00916916534259014
0,0050592090886156125
0,00729381455102593
0,01066068809356299
0,008098189980967393
0,002027201505801353
0,008427070193006859
0,010971691691334646
0,006523556244649344
0,00280252178504063
0,010347972233379675
0,011047208426241423
0,0046538123655692895
0,007709090555616297
0,01436014115901378
0,012808368656779397
0,0045138978142596955
0,009050543900907614
0,014151344592940943
0,010059964202804486
0,0015548569156347504
0,010508400815788806
0,012460888017280616
0,006109434036917341
0,006068429238389028
0,012539146061566968
0,011047852158948641
0,002839571973316045
0,005998289350982921
0,009198786949711404
0,00613419142581701
0,008340802409797468
0,013262127602792207
0,012155469958500335
0,006887070705849335
0,008139432315381506
0,010044927055006071
0,008089675269904383
0,009675013927257203
0,012399814125877233
0,009386941996084842
0,00300834991470722
0,006786645948164854
0,007977193808293422
0,0027898093487684194
0,0058865037934945005
0,010359607338468453
0,008222139522206134
0,0030801229213146407
0,005802280260231598
0,006414068359253885
0,006050468008273897
0,010415279183362155
0,011862883829648042
0,007395225739739477
0,00487771587028309
0,01033645409528004
0,010922793315113392
0,007430696064291022
0,008387764454195808
0,01168238934987531
0,011063457780336645
0,008512136054918726
0,007044605414199733
0,004846792520327185
0,003769423050331778
0,008188862783136481
0,010150078827048286
0,007202436609388044
0,0029861865323608933
0,004180596739099781
0,0036683014777518035
0,0008738647936282148
0,005054508626838787
0,006831561494785675
0,005648177252682002
0,0034120215804743104
0,0011144189112672618
0,0037363654412066864
0,007758975712261499
0,009240237235037706
0,007386743586708998
0,005273593769416949
0,00577943700545495
0,0032867446037849577
0,0032443485592989155
0,010145131574327634
0,013259721067811361
0,011038042971209219
0,006497499221900266
0,006127043963974113
0,00574249770477636
0,003222696018427592
0,005803577016399514
0,009016566180372318
0,008515807472749133
0,00562038099877485
0,004962514369385966
0,004608097784697774
0,0021979599247153713
0,0048083703070462705
0,008536744603701305
0,008603825731042392
0,005398890269366557
0,001366255650578585
0,002235511284992779
0,003853893468688486
0,0037919146708846906
0,005705147948144919
0,008685999841365383
0,008545055161668614
0,003888427528717269
0,0050024890724709
0,010046977485609662
0,009563957076438648
0,0034987046266423075
0,006334114117038617
0,011325762347942152
0,009249209430776126
0,0020795939382402063
0,007887504907671625
0,011620921281628614
0,007801974004333833
0,0026976469115448246
0,009118640642218937
0,010553130869281026
0,006337771750187013
0,007255552689892389
0,012056479229277947
0,011352005114054032
0,006162449292298137
0,00553396671801627
0,007641234217974834
0,004829427465692886
0,005352468364380636
0,011802037136406495
0,014326479713804232
0,01133738860763002
0,006571365102930377
0,005933683412071625
0,005426279267774269
0,002353257568674241
0,006733305257504113
0,011245033363267886
0,011376318834225645
0,007593566233165943
0,005158497010771682
0,007270843872685382
0,006269386709379548
0,0010891775351824719
0,0058616395710334905
0,00972278930324686
0,009176237074916998
0,006769804625759164
0,00785233741760704
0,00883256051192278
0,006504395138843314
0,0025646464420011855
0,0036726378854589543
0,0038645542302409713
0,0006626834378026989
0,003473144103439539
0,0057641100163826915
0,00529600345519847
0,00410921286649868
0,00436169365891732
0,003522916835016174
0,003225317729341405
0,004595726541034432
0,005154614489842952
0,006566086485754964
0,00876828357468809
0,008912516904616322
0,005683230344349688
0,0054985503377152495
0,008586133296179587
0,007389557313773784
0,0019070625129393845
0,005637589899616305
0,008975624101376289
0,006970421876625351
0,005252296429994016
0,009949730016366239
0,01249875539312886
0,009714924537816893
0,003542657247551329
0,00312815220531703
0,005831106057089312
0,0037836182388698066
0,0024641156382156667
0,009313549770441782
0,013746396960326158
0,012806816246843013
0,006445382274683511
0,005069676896095156
0,011351673376890796
0,011644304793941908
0,006452517176754922
0,008508594196088445
0,014881827921339427
0,016330445086236486
0,014392840102291894
0,01496834756224535
0,015695251365118915
0,012487628277882731
0,008824453300096324
0,011673455684395238
0,014153498199802628
0,01312710103962157
0,012002859301358132
0,012469880273452928
0,011376043340199198
0,007671903919457578
0,0049145418519981835
0,006254084850051193
0,006893157621842997
0,006235290756117927
0,005856861974630123
0,005706200516536065
0,004909431098244235
0,0034790296063794625
0,0039021676297735933
0,005131460781077841
0,004474757599282136
0,0026197478638817218
0,003669221969513491
0,004753514245968166
0,005461399714403101
0,009797687738638605
0,013758454598081829
0,012623509329058962
0,006157006738269694
0,0051739638044002905
0,010702439661644835
0,010874734116387416
0,009992081518201992
0,013948061944953878
0,01504586352151686
0,009596869236129641
0,0058147876018969985
0,011598996172545511
0,013103046994764929
0,010563325141457237
0,013361715039675934
0,017478131186550512
0,015336871853769266
0,008642453581610351
0,007235379897292531
0,00845471529310807
0,007009885550753191
0,011540869842131376
0,017314730941195025
0,01746532057679498
0,012501156857258638
0,008719293440806028
0,009105471867449224
0,008159749010868583
0,00844845478162376
0,0117338791357365
0,012665996232039638
0,009969673107042968
0,006486909622795495
0,003937903863078443
0,00022949514131188239
0,004471426031507189
0,00742899216612217
0,006725242803116417
0,002556168148895953
0,0027016337651694293
0,005533544829093782
0,005865298449150217
0,0072014014746232665
0,009490999444012799
0,010223957266470565
0,009980016212936803
0,010205444624564785
0,009145313601348801
0,005205439211811769
0,004049889011895351
0,009111436176843455
0,010647894530546589
0,0077474158250799095
0,005852168491120921
0,009046793296119904
0,010321827974539597
0,008300077597628441
0,005869947062298102
0,004599829318751487
0,0029187075036371762
0,002709199017909047
0,003178969056933691
0,00446725214722634
0,008195713799163794
0,011598511913216166
0,012027882980142832
0,010119033721482906
0,009415771402584752
0,009306315100312103
0,006471149993030407
0,004835993352646493
0,00952350854618853
0,01248871643019019
0,012148477816023373
0,011507702389682736
0,010744246200179
0,006868686006353216
0,004050830624489459
0,011175125344514113
0,015697619005864298
0,015337047518346381
0,014644227982895927
0,0165689180108268
0,016451972203733213
0,01176738989569997
0,010068921094092107
0,015830316522675972
0,019122799822418022
0,017850591326561912
0,015923347400718577
0,015671617945175235
0,01427139643259071
0,01029484483073918
0,007092262531528414
0,007791184368457323
0,008913395722840493
0,009046225015865333
0,009283851872901134
0,0093499255795945
0,008696266316902627
0,007526336519556318
0,0061219134674807005
0,00480722101596517
0,003775789874440094
0,0024993043654259997
0,0008415776415306088
0,0029050900650370334
0,00482125600339466
0,005232959144849436
0,004598310591252503
0,003975148048945724
0,004115796320244183
0,0056668169959113454
0,007726027725948392
0,00868856386412362
0,008643003332488535
0,009288377357157535
0,010373798599032475
0,010374003759504704
0,010758630417446737
0,014596281322643645
0,01918422627569837
0,02073679787146625
0,018483595876088794
0,014056727091330953
0,010291313438366291
0,007712363080790828
0,005760146228045532
0,0072706608290369346
0,009557805040381949
0,009126846318683454
0,006867700177796135
0,006386668159631501
0,007729404331216453
0,01135803132576322
0,017173374076288616
0,02089956843820534
0,01922397506832402
0,014285565152319005
0,01448567567013641
0,01786844460876124
0,017140072934861358
0,015233396575155163
0,0193282370294599
0,02375331968991483
0,022573844450900823
0,017573392742999027
0,014662357685330153
0,013602024945004674
0,010229532749396492
0,008942772963376996
0,012927003362463276
0,014504456275661883
0,01148026440426027
0,006833750625350246
0,004808405038100057
0,0035878104050094135
0,0019028138674301665
0,004160832691671766
0,00559689910689308
0,004879545086891098
0,003516428580787222
0,002496803375336827
0,00031249935458686583
0,0031873534498276764
0,0060568250085253255
0,007125126259560671
0,0063401247455707145
0,004770856595547507
0,004657756367120638
0,005899132912257981
0,006560010909248295
0,005459645160593226
0,002671675490806189
0,0004491513914396904
0,0032218129520340836
0,006320789205902489
0,010000489479166558
0,01300947430195221
0,01409523997141262
0,012539862885937586
0,00934470418859164
0,007786223748826966
0,009007541405499558
0,009811171694924101
0,010147762100158182
0,011997262714121566
0,014494209043406783
0,016033888219065585
0,01670858812766746
0,017186287396880495
0,016656638726215568
0,014128060726026997
0,011438433664765144
0,012124403270242053
0,014563289692684545
0,01604752572898321
0,016853668012159935
0,01695845100604233
0,015064759943095729
0,011094531297699555
0,009347447194521949
0,013334512541672899
0,018266621304579234
0,0213264756166196
0,022391162730136933
0,021703559657697487
0,01996666034838493
0,019846951575578854
0,022547578551565004
0,025583560559111505
0,027130496708961727
0,02794128733086943
0,029195158542195794
0,029627672802600712
0,027792594114570877
0,024911246140470876
0,022980315187435065
0,02148688484949578
0,019380556672566385
0,018075946647458332
0,02041879695303644
0,02350342734677121
0,02294185808386919
0,01861701294927926
0,013585849596712826
0,011995057817569063
0,011954932477388821
0,009555589803357443
0,005393008573144066
0,006612026627330662
0,011558592773485865
0,01416530742232581
0,013683319498759438
0,011835691675848822
0,011452426251733296
0,012335887009473908
0,011403292200169885
0,008041221400609411
0,005350864969178697
0,00648038207875267
0,007077025212019404
0,005546472327145938
0,004791589059101772
0,006535506310637976
0,008069722458706458
0,008528865167423875
0,008590822763990973
0,009509811161362796
0,013483877009824827
0,019262854221658812
0,022668083674192447
0,021047746953023225
0,01641942497530604
0,0160047103490845
0,01949682475916991
0,020634051370065742
0,02110678583826248
0,02512482272801011
0,029246454629673103
0,028147975350724812
0,022535598537335676
0,019276957644397776
0,021198812023145174
0,021650182848749037
0,017665330092308928
0,012260401225289819
0,011223400773388407
0,014680110886705488
0,016556829464987197
0,015557255694498675
0,017704229642971078
0,0254016102345451
0,031191307692474184
0,03049426884942276
0,025525894486340288
0,023938601427170535
0,025868863924366655
0,023686473856789632
0,01750035391549861
0,018461747571075816
0,024875948915515627
0,025589115307560563
0,020298831825969685
0,018193301315132006
0,022153263966611603
0,021955377780113302
0,015034009238999101
0,008942665239019735
0,012165192760156561
0,013195582757629125
0,009980236967981898
0,00977434627103387
0,012513062776699783
0,01217350912078839
0,010219291160217091
0,009565113520389532
0,009145755053188038
0,010425771442614395
0,014713694510631217
0,017409216967477402
0,01567632817325749
0,011160770430936398
0,009146301783577846
0,009480080066595538
0,008038426442610023
0,00615371706210319
0,007861317399352823
0,01169505231170274
0,01492650266522005
0,016811170283877755
0,019385707377222044
0,02392800642762538
0,026548276740105622
0,023558258862903723
0,01618789973932776
0,01142789210283829
0,012218362315053221
0,011589698403202823
0,009910412281886173
0,010706437178519707
0,00987717194130681
0,00510057780382859
0,0010177744738359858
0,004304208041921246
0,005595313183540052
0,010265461621692562
0,01463491959161617
0,014275087484964876
0,009358290487502268
0,004543422781147603
0,0020991543253936398
0,0031534051064957764
0,01019012721497766
0,014636685840554687
0,013363471674962235
0,007436469021344035
0,0035276645989099128
0,004373542759135358
0,002361418095960266
0,005717777809133242
0,009389824252514662
0,007776281259347434
0,002398748268126195
0,002245344473650987
0,002695993295196426
0,005703236019132329
0,012684986483226557
0,016024234131122302
0,01395702970798598
0,011574100710738925
0,013055698571785923
0,011563146962625519
0,008088112510725682
0,014351868522351043
0,0202061682057879
0,01865372334031793
0,012528473319450104
0,01049420403376184
0,009069315008811241
0,0035541342395604756
0,01005798384826018
0,015328827032137443
0,011936854609356723
0,008883314077059785
0,018427741145698735
0,023080136304124553
0,017366589661030878
0,012085878510057727
0,021560673292609876
0,02725532559991925
0,02402364099051279
0,018283745332392357
0,019179424877256827
0,022384550867842207
0,02243532095610596
0,018388394829775556
0,011374162310903263
0,010966403951467222
0,019489261795079173
0,02303066475673614
0,018006040774051737
0,012442152962796972
0,019714753955314218
0,02564063618910078
0,023215461445574754
0,01651118206842713
0,01521351157032946
0,018733722206678866
0,01947932196553225
0,016348262782230262
0,010789790838435473
0,006341250889220269
0,009588325694635979
0,012990786176778187
0,01085588592666005
0,005213879421904636
0,010350602268583425
0,017277982162978486
0,018544780651421164
0,016074067917622274
0,018591579361243348
0,025396618137161944
0,028178841968939772
0,025056653288098703
0,02146973096153968
0,023595852380057705
0,02657284416486911
0,0252674779554558
0,024162247664395006
0,030302413410203944
0,03749660327920907
0,038524560403252806
0,03440068428521396
0,0323208454466348
0,03350115266784158
0,030906494934419357
0,022234551265579126
0,013233139571410183
0,012212757577316009
0,01279719091626503
0,008955759539314082
0,002598270125914836
0,006410237438911969
0,011893964311436744
0,013838464801696603
0,013469843253718418
0,01642270521399199
0,022311845646634063
0,024231294839066376
0,020213055848791076
0,01766726013006787
0,02366612885299016
0,028637646437853256
0,027346640040951383
0,023570725487167266
0,024090482311188866
0,02727872574973121
0,027982154119172008
0,025302615573002608
0,0218722066469081
0,02253131341781668
0,02708603352330663
0,029118534573419407
0,024909519550287394
0,01613972250273356
0,00998588575198914
0,00927996649451116
0,005419934886636295
0,006048673541151384
0,013611923114173748
0,016715265786851452
0,01644776418176538
0,01944568034773397
0,02471462660197446
0,026025101760171823
0,022939342202151047
0,021162260081677303
0,024099898309705714
0,026859970713059976
0,026093954661808274
0,023213154497923435
0,02176724294442564
0,022758607756787667
0,023824123340895467
0,02287190791022341
0,01971723640197083
0,01633710113283166
0,015561227017529019
0,016894204123244452
0,017314814523279286
0,014695757867919578
0,009830277030998974
0,005434255935408998
0,004169682466064703
0,006251365323437901
0,010301774531316739
0,013387053090036304
0,014195102361259844
0,015224175776750918
0,01914411872423398
0,02340385493902563
0,02581004773986267
0,027808435308505023
0,030532225763991963
0,03142132209275357
0,028628161121490858
0,02453285612256376
0,023380989003352025
0,02400878297168391
0,022039722883316026
0,01656272914458471
0,011003191004951248
0,010536862718346552
0,012166942292541925
0,012188995969221506
0,012449636393083972
0,015236682433416537
0,0173661431641727
0,015509976586302867
0,011502723729438195
0,010834677563307884
0,011955566573262457
0,009066342112827194
0,0019462000237777687
0,008181959474850389
0,014294217810144654
0,014782027907306273
0,011823728650529414
0,011931478880373766
0,014215335131472481
0,01393633692702175
0,013270237889148178
0,015063837743796032
0,016625125540961877
0,017814118871642186
0,02320252540204061
0,031149655881610765
0,03593701531735709
0,03622609668935279
0,03655508843030125
0,041265484301603775
0,046448229603531004
0,04662998567144891
0,04314044523288557
0,04338831266340477
0,04884392502009314
0,05115831731123733
0,04566631811343165
0,037445110143620876
0,03485042227650629
0,03427305830039353
0,028088928252880865
0,017158286773037414
0,010328511325863932
0,013414241783513968
0,01650011266554204
0,016449835553110005
0,012589830815134167
0,014545260184389692
0,027649421707500052
0,03738982901217373
0,03726794048942508
0,030556130865387394
0,02720981602251661
0,026788499138388915
0,019164448117992967
0,00485703055130025
0,01114604297079197
0,01836457427112135
0,01986188303116316
0,02401608185903899
0,028523931754203005
0,025607964973395576
0,01594037060981749
0,010339175456778212
0,016169699976459003
0,026173740472250864
0,03842891364975064
0,046208233953135544
0,04480580551951342
0,03758758232465227
0,03142429007647391
0,02586326931760765
0,015898721922008988
0,0063154529510715774
0,011692824627651139
0,016067054526499067
0,01934307630460608
0,023728289850519762
0,023960889801524474
0,017738348621018345
0,00959375769115603
0,006968455511640466
0,0058145963194565
0,004642375692233575
0,007561507017894994
0,00783971810977571
0,004609934838580187
0,0026878160197042074
0,0036506411445132304
0,012210815900806015
0,022832759946829817
0,02832074563311112
0,02685951520190163
0,026183241526878526
0,030385268227764536
0,029607590310877382
0,019129382197308264
0,011445714805320665
0,022246732135425027
0,028758756572337993
0,027885863249624755
0,027210968607517396
0,03010649597370259
0,032626659482950356
0,033762550578358766
0,03433171712487859
0,03555978876300597
0,040453660960859034
0,04659813191136446
0,046295298661371526
0,03594126947516021
0,020651109126680316
0,010175642709509956
0,006557344911932389
0,009142888531579681
0,019882530497496973
0,026374816860385977
0,023634021961236134
0,01434383326132648
0,00481755402935136
0,003214659651356305
0,014382764536714918
0,02983694878814667
0,043939422133866056
0,051898020342290394
0,05510200267191337
0,05827366537077194
0,06318879164683924
0,06602258195654281
0,06285311779961338
0,05402808962188251
0,04396621288226435
0,03637661017368137
0,0300264374534838
0,02305676149255075
0,01844662899830463
0,018693784830384738
0,019157696561740076
0,017876624392795918
0,0163567261542625
0,013743299237249125
0,009394605257847641
0,008116448982801993
0,012570580653211556
0,01842353020340234
0,02379988028944284
0,026707852798457485
0,025214159565252355
0,020538823173735857
0,016555865130527474
0,016624985534137514
0,0207279418707796
0,02537631264557203
0,026325257823544522
0,022921622974792968
0,018608935836884558
0,01597508092534683
0,01086123859064413
0,005390015358396248
0,015017653903572613
0,0229675235183251
0,023577696787066407
0,020075827062574016
0,018809851927392384
0,019321224892970553
0,019107113236797334
0,020035757601633834
0,02120692572496194
0,021792524750332925
0,026297086594127488
0,03315344701784755
0,03475316132805588
0,028491058560230608
0,020428303684742955
0,01917849894429072
0,020053299106329102
0,017578578840459366
0,014614813301879458
0,012086965902891829
0,011988269082500305
0,01818363871919451
0,022275018574446387
0,018122668535832366
0,009046928146242708
0,01052422144025722
0,013853764296359037
0,011154949539756563
0,01808993444305658
0,031163458738356308
0,03684236453974455
0,03249006634093097
0,024959728706732565
0,022715118183568226
0,02206498589059908
0,020335756954949647
0,023024766300728205
0,027310892639585138
0,029537870479594632
0,03472624794084114
0,04324893652924482
0,0465797824772537
0,04000572302210413
0,028131281068478488
0,02134421715759613
0,02097536765200301
0,01868271278106187
0,0133512315924053
0,009096026604525664
0,01421370825916226
0,024078418102606233
0,030845709305597623
0,03470776309019922
0,04272720598354761
0,054299412308370015
0,05988288500323896
0,05519986655199388
0,0461456476191944
0,04265909862316395
0,042062012425892706
0,03625503779989306
0,025378709347424772
0,015109953097524803
0,011372980211960865
0,01550862469931683
0,020332998926620462
0,0200789605932085
0,0143968754684199
0,0105499532045484
0,013598352435782198
0,014846807489766215
0,012849294345793771
0,009875157272417421
0,00801328627351009
0,014422724358324425
0,023156242005993442
0,027336487342624567
0,027551403452449774
0,03073171376310458
0,03696602296004953
0,038829444221950296
0,0336902388711419
0,02615597031819574
0,02209813706915885
0,021256179753345202
0,02223828433860176
0,02373564776229782
0,022590205962474134
0,019036393945576307
0,016771644033891635
0,01594916004714118
0,015386768229353958
0,01810504419995831
0,022216635295081652
0,023465799170040106
0,022792593211433405
0,023640715754802373
0,022940266338594036
0,016131445190675546
0,0047619335023959385
0,008230995033001016
0,013680821849378189
0,014537411951823339
0,01738955962322186
0,02217961166080463
0,023131850480930777
0,01907125273148055
0,012622327238107122
0,00831756702451394
0,010636473507818885
0,01653414278505595
0,020134213224982923
0,01911819904202712
0,01972836123157717
0,02894977840513754
0,03764497470141541
0,03855507331555366
0,03426874763966707
0,03415720833466367
0,03798857933456327
0,03532508932731167
0,023578362089945893
0,013060596951295928
0,01787844975329762
0,020443808569448656
0,01575938047950232
0,012406978669366065
0,013367364593552184
0,011173720062960146
0,009867531006403361
0,01566954752457214
0,01874455809856342
0,016491769783926486
0,013762546057621452
0,01684215320097357
0,024275183411902053
0,031920424314610896
0,03593807700670458
0,03396334714297545
0,0275496487049025
0,022617030311758803
0,02257702378617386
0,026180181705277507
0,03121844042619906
0,03257899316510058
0,026339837774584374
0,01495599125338594
0,005077565063990325
0,006182179767015121
0,021039774316489204
0,039429120247756945
0,05229158928927964
0,05347314128189701
0,0442249573633386
0,03211909199840103
0,02319292014750494
0,0191852129394913
0,025901314760763825
0,03669489518909078
0,04084076635168573
0,03638148816677541
0,02935663753116848
0,02505269223271128
0,021392056476253387
0,01610134930400838
0,010450300578043714
0,01012763757263637
0,019962345128666823
0,03056486682846562
0,03755709741649114
0,044391191828726424
0,05418575984809363
0,06143610049060232
0,05965302851330798
0,04964754693225124
0,03926279720692566
0,03646225234575599
0,04318376830345364
0,05406823351476483
0,05950731969778026
0,05385762799629411
0,04257249019047395
0,03856383716868913
0,03902039471585555
0,031194404899242287
0,015803198485374325
0,007790309976253575
0,01229986270760202
0,019635993794404335
0,03475091064777976
0,04717104410811106
0,04794079792437103
0,03752448658440831
0,024136545685345668
0,015471210706510266
0,0159756860362117
0,026066650510334646
0,03444496691330889
0,032981790185121304
0,02246075999406429
0,015089203079207116
0,018081113950048962
0,01812301388812951
0,016287233694947004
0,021238637214432286
0,029604149119026556
0,039345603534106585
0,04985347517011468
0,05678406623076976
0,059247415204111975
0,06053558886740962
0,06054529929303391
0,054295815026571485
0,04116736544319276
0,029515506747145703
0,029797092206172816
0,03500249627048361
0,03903435799181699
0,042900946837815084
0,044582210121337104
0,04116736335189871
0,03427503950332437
0,027412496665971335
0,021894257853315866
0,018002751842047863
0,01679886320637179
0,01762840514874115
0,019287744039817964
0,020516514177410124
0,018990371522609073
0,014407477165710622
0,014643749545183568
0,02170524528779535
0,026156609174699044
0,02622436759163956
0,026984375822746647
0,030881301699306453
0,03371270803326715
0,03344281102272778
0,03206187193031837
0,031784193548893884
0,03364584438578563
0,038109316676650434
0,0427720026214884
0,043261608428372476
0,03861907036518337
0,032202712261490324
0,027153326460710336
0,021893665246240493
0,014205900301095977
0,0069588546048278506
0,008638351654116803
0,01191151248923705
0,012988314775036367
0,014983285096110705
0,01943472835622019
0,024756108438935574
0,02853007217093655
0,027912865952798824
0,02251579458053046
0,014533497612812906
