0,0080342060236992
0,003928373267165696
0,007940131356788463
0,009914954835909717
0,007412866700658298
0,0051335125800070925
0,009806028958358377
0,013617181298353275
0,013173567253455257
0,011032630842453187
0,011671160453677719
0,011685494581557621
0,00818355717758683
0,009199511419407249
0,015379260611969066
0,01782719149642132
0,01469403836304896
0,011903213751702032
0,014847286021479118
0,016508357920319804
0,013883788050643428
0,01176965165352066
0,01441368534285714
0,01570710573208607
0,01467924294698714
0,016212481014731175
0,018158333355567418
0,01613319963267428
0,010773237574760732
0,00878618637125409
0,01120152514360499
0,012235797034935407
0,013021575219199557
0,014710436081996745
0,014975755547051044
0,011866620168511937
0,007866103350978298
0,00954039248791116
0,012264643510503454
0,011141928104866118
0,00850657919694438
0,012205018691766618
0,01726303883107598
0,01799412564949017
0,01656771692612671
0,017377471543974708
0,01889886232259814
0,016187220641889506
0,013399404208346156
0,01644293642598999
0,018242613963872202
0,016477970477833545
0,01917579530014677
0,024681562565672627
0,023672570216458827
0,016836768156492175
0,016284792404583318
0,020194512542309338
0,01597515282371137
0,009156505278887287
0,019697039628860085
0,027982867311477495
0,024459957218780828
0,013236098423361674
0,01170032027620414
0,016452447884223717
0,012493629582325992
0,003807065456409834
0,009870528887828677
0,013176291923970882
0,009295782346482215
0,003951081542113007
0,005867145265882089
0,004942686038850376
0,0016932076349030132
0,006000444439842549
0,006520397403107674
0,001996315140215503
0,004024952516199487
0,0062062929038316375
0,0024195772285118024
0,005450559500965586
0,011388481691730474
0,01167370173459143
0,007275835905630656
0,007515653126986719
0,010477574487670158
0,008088343589252218
0,0033971380423776986
0,00757428533980799
0,010109928773562121
0,007112793648853595
0,0038332346860794507
0,006906216765506559
0,007702966423136454
0,004748928268211744
0,0017943455315215105
0,004097635536879321
0,004577501972913811
0,004658396932044583
0,007501014576141129
0,009978478348787402
0,008779835599331431
0,00466969626128721
0,009332515025205664
0,014799980405327403
0,013713750180601855
0,009636352457509954
0,016334912115088564
0,023078599889123984
0,021190252080048273
0,016272662693060755
0,021701555639118516
0,02579349565930558
0,019509078288075753
0,014851088008736605
0,024985383265147286
0,02932922965745142
0,023879256947501922
0,021833015962986833
0,02716121408029477
0,02570404654333648
0,019188156047756384
0,025212358612764392
0,03338327142457312
0,0313016153498462
0,022745698293081536
0,022225338930483632
0,0253987143836394
0,023507279576044652
0,021680333357518358
0,024135878756626407
0,023136693304659537
0,017543542473066037
0,016804495418741593
0,0200085756769355
0,01830228767467141
0,013660132651766613
0,014691399380632663
0,01689098666158025
0,01566055245170187
0,015287809307115732
0,017119204273877434
0,015843315070601056
0,011136814694404348
0,009209113500843165
0,010957088818378997
0,009094843729202254
0,006998337105980119
0,012201583646784043
0,016640744546631593
0,01471819145335997
0,008624702959154384
0,008309102617197486
0,010942569178684818
0,008731550932674888
0,008082769298195909
0,01406371258532539
0,017034484265442944
0,014757184992179572
0,011438951982677633
0,010430264501151925
0,010494770777095546
0,012967223894920719
0,01731335208324157
0,018630442441989525
0,01549046256180206
0,01440608156878816
0,0159654792211961
0,01377461149172091
0,009696806337882828
0,012261794940372826
0,014127860282915263
0,011941992309244642
0,014158221158853642
0,017595177028020756
0,015191589375499673
0,008121680125260518
0,00996921247830004
0,014054303380035105
0,013292422866466074
0,014534110385099724
0,01778843952615101
0,014717864289442138
0,005590539486460899
0,01154551828847741
0,017980268233415166
0,015820709668964997
0,010324025582848109
0,01228297616949734
0,013567857115957042
0,007965341779924515
0,0024422371074666956
0,008843585816338305
0,009349381909135984
0,005717723965834321
0,006614603729165514
0,007863175825040232
0,004143784326669561
0,0021656241929318603
0,006193030526750718
0,005194194249024921
0,0020115656631698323
0,0058248670143817155
0,008167063825283441
0,007371376111693404
0,005166022137450473
0,004433722565128894
0,005148530107476936
0,0050741556100965335
0,0024697451147627347
0,0031882926024152966
0,008552609218160478
0,011052523672937993
0,009321919526788867
0,005298667420207695
0,004472878599864946
0,00703845771084898
0,008888434500414375
0,009498756365152529
0,008986956108830282
0,008323462697208402
0,00793874361394689
0,005808532472917314
0,004788957658307791
0,009235994472583102
0,011265377715607408
0,009090304082506216
0,009960974120701504
0,014888427782364912
0,014289726607744423
0,007225052932518324
0,00893504076313814
0,016186196666112686
0,015971507892322125
0,01052629186431436
0,010578039263494396
0,011665803483365935
0,007779055264714105
0,007844992794392682
0,013236028536151136
0,01382704724072984
0,01195211396613873
0,013877595925071706
0,0143181443937402
0,00845049903767115
0,004250640662279335
0,010462887954256941
0,010305532269915766
0,0059122844334672225
0,009100368058895985
0,011306058795872842
0,00837247048360594
0,007516260435311904
0,010543505141126633
0,011214059197600325
0,012843335216105626
0,015890931528837075
0,014451439028644696
0,007969378337931548
0,004726963197479056
0,007707344669304958
0,0074131431058555184
0,01051342448214401
0,014431603658874794
0,012270161510719113
0,005933341943766502
0,007760902403216145
0,010515775118225868
0,00864522165390182
0,008721370539511431
0,010548430308318308
0,009209280221680851
0,009663999064577374
0,01216411370408753
0,010174041968708624
0,008116319164666451
0,01495678688124955
0,017089051359497492
0,00945636114073978
0,005794835776183426
0,01704316353485027
0,018435131861365955
0,010142151728327822
0,009028634071940518
0,016215220666512695
0,01539736704528014
0,009254304936601027
0,010017419649915255
0,011643475363794079
0,009118262848113115
0,011020608821987346
0,014378751315529825
0,011170496302134904
0,006868762152929772
0,01166977222523487
0,012913740273147739
0,009921980145135935
0,010283464125459114
0,01240355799291965
0,009890301001935036
0,007613166174086773
0,008553046840418856
0,006177863329581254
0,005854486376352182
0,012645309594467484
0,01450736626260404
0,009860362246074866
0,008445405910498959
0,010856880342602432
0,006823646950632629
0,0030167017285450144
0,01188845985171472
0,013600975701597703
0,007170496200515087
0,004300661870631284
0,010327164248024073
0,008611865266913456
0,0014342616126823305
0,009318816641009402
0,012942018418529726
0,008770656940784202
0,00210322889855578
0,006735148534196444
0,00710061060153508
0,004501371744514595
0,006233403672894591
0,00705036061437623
0,0039742361741400035
0,0015847688627819022
0,0026641832057895326
0,0025034138027124303
0,00620387812851789
0,008551885177175318
0,007078435553471699
0,004887237170075645
0,007104374041805824
0,007150907595533838
0,0035739314035183193
0,005475719735774451
0,008989503010287943
0,007824757182956615
0,0030222267683671267
0,002380897484133609
0,004024641543866629
0,002978187333502145
0,004341796242395083
0,005790194163062494
0,00435132998039497
0,0019703405257255197
0,002892400769502597
0,0050482292912462316
0,008643078408028809
0,011442184532009955
0,010825452696044142
0,0062557423430679385
0,00029869618480712006
0,004758554883643185
0,007104744403224251
0,008341741408901343
0,00995306089160591
0,010017141996820135
0,007517468165803682
0,005078043734640397
0,00482417902569324
0,004167755328352346
0,003993176200247169
0,00754006811658374
0,010665850334243974
0,011199175387612588
0,008381507474237201
0,0035302629640725698
0,0032073157345042774
0,0055227894724248425
0,0052002655257364855
0,005059160329745656
0,007078047070148575
0,007364277239621031
0,004468165947795782
0,0025057700469489977
0,003364518478743454
0,001807590784923762
0,0032461786469797503
0,006782500922047425
0,007227014424861259
0,00482543624280864
0,0028754275604917423
0,002736645344650203
0,0012110501788367895
0,0011819555383657924
0,0010826851479310052
0,002446588765900162
0,006192267396318095
0,0074205432878892185
0,004927987474559921
0,003681142056203299
0,006196341490471801
0,004734601037596295
0,0026565469748546606
0,008145755701074963
0,009994536793520428
0,006280812640624703
0,0066554242884921365
0,011399847021595367
0,010290279735413419
0,004593068576384406
0,008660044987045097
0,01245902824112769
0,010050887979635909
0,008349362809677931
0,01064113429556544
0,008215391177492239
0,0018440121335423258
0,00967193318644119
0,012250594229820241
0,007185329336933736
0,005620901859361986
0,011240769291600951
0,009043457400360097
0,001011834872981033
0,0105933647217221
0,013389606414416324
0,007917477297132098
0,00698353118964623
0,012489394880166196
0,009783129704245889
0,00035913242655547347
0,010121596557363909
0,012295481302980023
0,005739467314312826
0,007870682953392893
0,01395904103035195
0,010480083619230427
0,005123569285650538
0,01412712053630293
0,01601273824679996
0,00831949726593049
0,007763968701515125
0,014023773521149654
0,010392183704285882
0,0032211410765409327
0,012787376141450672
0,014950273231516535
0,007951950333873609
0,007619807872687924
0,012715011817667498
0,008194227914464775
0,0035475032809440385
0,013151342961858261
0,013739861275616537
0,004664082008663395
0,0075956824318663425
0,013863212515687895
0,009955573122268826
0,001165395281455226
0,009797133462740209
0,011144796691707336
0,004180613522229734
0,005033787072091978
0,008731124601461044
0,00522719874645273
0,005649396077938832
0,010501292996279136
0,008847583573274356
0,0018559909291271522
0,005935514667591323
0,009072978685084962
0,008800195965833205
0,009379548021459915
0,009879838168321192
0,009345019648108275
0,00898813423170729
0,007057638873532846
0,007163362669309936
0,012963760504749237
0,014520302057890589
0,00923116411212436
0,00823795030762459
0,01166616201070766
0,007180306886504564
0,008928860162895973
0,018185498877978844
0,0167470984833834
0,006106227907839524
0,016042700047644493
0,02158877278830191
0,0107838878020333
0,013096139351055467
0,026352106403712494
0,01934512417870186
0,007156054139595455
0,0338367465550358
0,038888215150306146
0,015534303862968276
0,0268749851904409
0,05110041980766397
0,039562259372095926
0,003926967815154439
0,048672004035558256
0,05816680218638447
0,01924642637552906
0,04421419066508615
0,08387956670040764
0,06296921351128756
0,013307021882901802
0,09174792072060772
0,10581147943792756
0,026065876427168202
0,11584609851951455
0,21129033885779552
0,16087522218619488
0,09106543892098667
0,45079558707962514
0,7965882938281492
0,9687775561208166
0,8872706211179003
0,5922090178223269
0,22551904380327334
0,10625987033779573
0,20223213767190507
0,14091655495367197
0,010296626033432997
0,1053224481716254
0,1146432385508398
0,041353525681421276
0,049968597979067324
0,09034816476662728
0,06011275491564868
0,008993018881328549
0,06193745684717639
0,062170845199776816
0,01591779430611752
0,03843753134933894
0,05816431805380728
0,031992983748447945
0,017981141612351762
0,052417453972829556
0,04798721518584674
0,012143382239690574
0,03190757735706473
0,04626651786059243
0,0265873855458899
0,009912338024378691
0,03443415265055485
0,02938995144656738
0,0023338925590341997
0,028654379785683984
0,036077707760217126
0,017075488358567183
0,01308628012018795
0,03125786404740203
0,02462318808445394
9,12509695274035E-05
0,023552055783226507
0,02889428891623556
0,013015285840946179
0,011123116989034397
0,02505092280628276
0,01926725660092426
0,0007482916962737154
0,018626812452272823
0,0218369598595024
0,008806446143942197
0,011399381277564544
0,021549061110955163
0,01603496104410707
0,004193625421315607
0,016753233692056533
0,019728109788798773
0,009877189811934662
0,008145393907927647
0,015865805551686953
0,01228849450433104
0,003975836564638506
0,011664000182111172
0,013223518551645802
0,006955401370183809
0,008285643757172148
0,011621967767774242
0,006833253572072457
0,004239281452459946
0,012408211565614499
0,012681470630452005
0,0061637221060841
0,00792173899467226
0,012760495067978975
0,010769501913945689
0,006720762459348961
0,010332701786348005
0,013857360843719168
0,01348112366181796
0,011659050740242701
0,00971956051535245
0,007324448711807539
0,00535290522794948
0,0044786002417622406
0,0046140657698026215
0,0070464775219306166
0,008970453751981423
0,0076821020174223185
0,004254543263605137
0,005421917376691563
0,0069056432711398046
0,004621897655081584
0,004309624824446729
0,007476287376383289
0,006643416408997219
0,0015896757341429966
0,005950196088326169
0,008600920622965256
0,0054837941554957415
0,004858913590774447
0,011245814487950537
0,012045043581480135
0,006609606164013179
0,006467373055269956
0,011291184064741106
0,00879377440099444
0,004590833250534208
0,013877050293165655
0,017540083680921147
0,011196929313073789
0,00496908378834686
0,013693574786909609
0,014685824234196466
0,007521402176839883
0,011046094107858862
0,017411727532814628
0,013892874620589846
0,0047409806848118085
0,010892710428799213
0,013177619731529958
0,005280010502153142
0,009655089339770275
0,018762625692571474
0,017171477472838356
0,005838796736351519
0,00780360504689564
0,014125580113078923
0,010134661396493395
0,0048479300010327245
0,012567439251679921
0,01397642962657599
0,008193273523104266
0,006433553855503218
0,008870084254751533
0,005308524587106965
0,007129714269984138
0,013942887817533112
0,014457254782314606
0,008533503488977438
0,005473336091018808
0,008667762653738741
0,007580439831993527
0,006216313765301991
0,008924327010577307
0,009389880328178214
0,0074002000312364
0,007086791534214502
0,007277694879623244
0,007101838385626124
0,009190738351486706
0,0103533201173384
0,008594386808505534
0,007126792328907892
0,006594113301365593
0,003744470921509376
0,00594860346619576
0,011172425094475063
0,011394792194837255
0,007999724244121448
0,008938078040076342
0,010117741201780588
0,006305727887954973
0,007908459947722725
0,01449056840818023
0,014676131318983078
0,008463996150410817
0,008301438635001967
0,012605173144401578
0,009810435868274188
0,007679220319394674
0,015661968466295865
0,018867715175373646
0,014220474236293646
0,010314666204435887
0,014151640043998761
0,014658180734197102
0,01298172042892836
0,017067492905261005
0,019840227794927796
0,01611693563267216
0,012393106114927614
0,015180745558930111
0,01618473082000641
0,013251993047039343
0,013365703328761374
0,01652102487049075
0,017495283305016367
0,017688009083107414
0,018299035697624588
0,016853162730929648
0,01427848392857043
0,014938931314076738
0,01591226280529367
0,014507683983328749
0,015449027709883358
0,018589971282843395
0,017501238975095507
0,012499597683892635
0,012307265410430155
0,015205458442469033
0,01292607020102508
0,009525916736527824
0,013463644953904653
0,01553695707876535
0,011285238404887389
0,006535364532786131
0,009874947103242895
0,010689461295318428
0,006411344947607579
0,005691106528307137
0,009944727548669992
0,0099016397221713
0,005766944351600396
0,0036491826618245916
0,007004423350467953
0,007536016336285579
0,004815751724662788
0,003313760501429357
0,005710972190509857
0,006943559895328093
0,006648074829619312
0,006474151931638477
0,006728855529944273
0,006037090739306996
0,004720217548424598
0,006074611955260086
0,008693116348671542
0,010214568598409237
0,010350069534017759
0,00939595115419194
0,008204439319146242
0,010698625478883686
0,015433607261400898
0,017930833749743143
0,018094716537805734
0,01913243740906986
0,021002335942497813
0,02021788002843808
0,017020882098072804
0,01700117968910393
0,019881042896430817
0,020403287430886312
0,01914630860464922
0,020082092480548805
0,021463190915642697
0,020361932488994677
0,018226370427030188
0,018251670100461664
0,020198429792776532
0,02269736944130657
0,02426750334352616
0,023133174507908184
0,02086104016943016
0,02098002470140489
0,02062773805120061
0,015215792404240603
0,009324733814694218
0,0146332304801226
0,018887464412924906
0,01624091579023143
0,01196650406341054
0,013151858290414011
0,01273846578303763
0,007022232847165944
0,007503737928981648
0,012889599789057491
0,012576056103000902
0,0071468729006856375
0,004097024773680605
0,005469165046216043
0,003155366515961413
0,002083970679280924
0,006068034038096172
0,006916317490972256
0,005086731195919698
0,002762210363058378
0,002391000403724299
0,0036042507202950964
0,005043698704592449
0,004420234450776042
0,001912215112646103
0,003417799650157409
0,00606193675976073
0,006776768764674054
0,008761358732558728
0,0117600727395143
0,012239248122400986
0,009416141106030824
0,006252761124745406
0,0054607229252814395
0,00471783837457117
0,005277761254346786
0,008257174783467078
0,009007451276807348
0,006306362407868149
0,003943007218543751
0,006263237347454421
0,006441726445449081
0,004073255526823412
0,00675677017057667
0,011412551534309704
0,01262444236128434
0,00986350433326866
0,007150931871637615
0,010872346992428106
0,014080913456029062
0,013073506552052621
0,010874483251628408
0,012744457589372765
0,014486798488558193
0,014041570411026069
0,01686662731478516
0,022448703361651928
0,02383995800431546
0,01998500829324479
0,017053394050855215
0,01900139175676662
0,019976320937320623
0,019084937760802795
0,02164603297939089
0,025734405311781408
0,026229070964516356
0,024379883143505796
0,024208789424287204
0,024409420335208386
0,021582542752774863
0,019588945220860247
0,02262453153156152
0,025637036490466107
0,02575997989045838
0,025831426318111552
0,027432411914161375
0,026582919531581598
0,022318697148236373
0,021623701801407966
0,026905357782281314
0,02932263123998003
0,027022929477207105
0,025866389283901378
0,028411103936728396
0,02874804938746737
0,025390532882590026
0,023763148520080917
0,025161224856247354
0,024282273420344083
0,021230778393782176
0,021739635821246824
0,02471676233787774
0,02492604094353713
0,022696368785535794
0,021370814636603022
0,01988298814375703
0,016378651690058383
0,01459350067364382
0,01851215770106673
0,022429905596968933
0,021979084054038683
0,019069446668050976
0,019860893738729065
0,02324321584122017
0,022603931023368284
0,017710446737297488
0,017614031058840428
0,023874023724565464
0,02699085652970819
0,0255686083221186
0,025557163448665432
0,028098513833091778
0,027970355299281515
0,024997937719990197
0,023634694401079823
0,023942185781116617
0,02268314470850487
0,021306674612237796
0,02203282602423007
0,021729759355282183
0,017788397125122504
0,01271566873086398
0,010536392957546235
0,010551404121283402
0,011416956818878618
0,01252446504127204
0,01185964073563354
0,009380508726536094
0,008772517756639831
0,009805148585403137
0,010892223143375328
0,013425589807611398
0,015865954308330606
0,015956852888401714
0,01440411532646599
0,012822688314348133
0,010216637189125105
0,006043658636861911
0,007988877543102367
0,012656613455462805
0,012839170877816851
0,008028134780035397
0,002999660339001529
0,003981394559539439
0,004063989356727755
0,004932249681902923
0,007496166763345689
0,008066295941920322
0,007165154416119397
0,0074468579972196535
0,007898728037842907
0,008356405180001263
0,011283157358484841
0,013798591071905057
0,012629857207637433
0,009110819928137814
0,008844302593706532
0,010563679174940535
0,009399822693839086
0,005315425159207129
0,001369761245225492
0,0038032487978271632
0,006564746140779848
0,007954427834753313
0,008306257350113805
0,009361509943772953
0,011831540346551612
0,014169176933558887
0,015577239751436784
0,015685299463877415
0,014947626175170444
0,014972879208621894
0,017628129437296892
0,02092326911356186
0,021553129602385902
0,018744217150744712
0,014740126962355745
0,011844611302240791
0,009617371068099468
0,007082843323488225
0,004668360194201399
0,0028910419582213673
0,0016864570926203993
0,0031170888129389363
0,00693969195882296
0,01254465562305328
0,01762972104683466
0,019536251678779752
0,017986838782917052
0,017283763438881293
0,020209064992469276
0,02209872183325825
0,022186907079298185
0,024872625918989064
0,02892170542032488
0,028950223546100173
0,024707782465648687
0,022269978218478606
0,023882122092252427
0,023484934708084514
0,019653538157954405
0,016866655670590206
0,017280393172952293
0,016573203351886535
0,01314660643984832
0,009639961535628518
0,007515815683591126
0,006500994993725413
0,006364697755515093
0,005734579523211665
0,003881663029044714
0,003926944615949616
0,005407401339941848
0,005083627810445567
0,004671737989052442
0,006384461613088594
0,007235285817330989
0,005601355689104951
0,0036949878144113307
0,002927871348624787
0,0024898603917983494
0,00462795561625179
0,0071102605529558115
0,006048557083260414
0,001584042674471362
0,00430965547431835
0,008240118580055342
0,009173074544747844
0,009494311315842307
0,011910124401948686
0,01381541962974202
0,012998866527294687
0,010943938363951
0,010755159250858423
0,011570107643250345
0,011052421438750326
0,010151532564360086
0,010638653373816007
0,011963074175944307
0,012664322192616494
0,012650437294027723
0,012447443898649897
0,011979950291794482
0,010978684265768214
0,010187665691409432
0,010986013194953475
0,013008075439774176
0,015497287354134722
0,017761679406328147
0,018334026194910966
0,015665000239349646
0,010955463768443564
0,008977212319492838
0,010595617361238876
0,010299151908938656
0,008324204271941646
0,008360574986893705
0,008956080002252438
0,007502650083145916
0,004556879239771465
0,0027924790689634513
0,002490886391171769
0,005103799994015126
0,008692903276975139
0,009499418322520886
0,0067631403977406815
0,0032699384914702473
0,004662519840978415
0,006053478145412357
0,007483163589263973
0,010961573967110224
0,013696094018884553
0,013204477541092968
0,010809906103601849
0,009425370800531838
0,009074103196739321
0,009631705662789352
0,013486671674713057
0,01767393671665942
0,0188816628401606
0,017973178460543283
0,019886124582782872
0,024014309495778492
0,024852244470267296
0,020640045718127883
0,01773551905436482
0,023742047916039868
0,030184718387827686
0,030863731421354953
0,028390004234081057
0,029373142380957576
0,031977365808240746
0,030429646837324624
0,025959149588684675
0,02582530482020863
0,02933470266323884
0,030327988482501192
0,029786078530835387
0,032345192905622495
0,035350674014667634
0,0339717414172183
0,029444563004612685
0,028060456763377404
0,029068700409034608
0,027626230093323323
0,026088008770230434
0,028335749735845753
0,02998517052500217
0,027135175829019496
0,024409819485642005
0,026005215934237616
0,025630862333989486
0,019926655505989783
0,016609535953904336
0,021308563799474257
0,02394299613089345
0,021500198402478018
0,01942244703308274
0,01954749102375136
0,01630508680882428
0,008240241290528402
0,0005394037835939257
0,005223541307231766
0,004499061519765872
0,0039021051870000204
0,0046374846952700515
0,0021003094181835493
0,006810828083679945
0,012563096574863408
0,012915725883832224
0,008869197511776143
0,009767688163816209
0,013746427353908417
0,011982586288264364
0,005009764886280933
0,005413604346260905
0,009184288965643645
0,0071393372506453655
0,003500984619494431
0,007461592783882879
0,010267744139176768
0,009783018542539731
0,007906825786620676
0,005337751608315732
0,0016914107025027354
0,00201218894986249
0,002949160530585588
0,004137561447195529
0,007581947875900515
0,009548537981519362
0,007251952208928095
0,004126584201988587
0,006487783901112657
0,00767759246693061
0,00737061610232948
0,009081837874880047
0,009076439764917538
0,005353225787289527
0,00756358923136141
0,011960569602514078
0,0115987277068663
0,015070132870336914
0,025629763065109324
0,03183782296329517
0,03041946194624216
0,030146376984228486
0,03635388334038047
0,0391714390514507
0,03444008776487058
0,03114896652713167
0,035111762594038434
0,03614418092280313
0,03222839692526749
0,03266102723969491
0,03567463286197339
0,031058571593629954
0,021358691950262902
0,023444526632743126
0,03047613275685591
0,028875400982434945
0,02392212197096773
0,02754283037209374
0,03243557851350326
0,03034310657006303
0,025670223845010293
0,02615965879518514
0,027730223214938243
0,026525602405623218
0,026425671053512415
0,02915702179662781
0,029552589138103724
0,024972528866468464
0,01889357322387433
0,01777926741994953
0,01989745211464617
0,019596260231344243
0,01603928545436703
0,013601913726039588
0,014723159272396582
0,014568182771015218
0,010319936127103331
0,007102387315268759
0,011522030740650197
0,014672647905326278
0,012735461059244696
0,006994845281447942
0,00512498554087095
0,009912316054311771
0,011808155307645524
0,009086201560923966
0,007160537610256269
0,014156965321102912
0,020258895771177548
0,020461101750229468
0,018372365720724065
0,02269688480912169
0,028759599782879983
0,028709825192533275
0,023707051174611166
0,024807024573379754
0,031631528892587434
0,03315462545591425
0,027735345075440652
0,02480508328810583
0,02915250820400681
0,03115793486763528
0,02629087749824667
0,01868238201854717
0,015249995168319064
0,015054806329249427
0,01372044658672519
0,012046035494008723
0,010673248123664925
0,01158404667874406
0,01714213521845918
0,021943039436216335
0,022603372050514145
0,022001522589086307
0,025152256049671907
0,02823632741576187
0,02589034527034011
0,018663211774010608
0,012641162334312275
0,009837484363538434
0,004996907618211808
0,008237051259475586
0,017431383061426838
0,02259836022207523
0,024438921861771774
0,028245904029646184
0,03543049485251805
0,04161386195487938
0,04511493115031231
0,0480114890743745
0,05073940712582686
0,051783159541549814
0,05061949155185108
0,04870284816007464
0,04706605439914849
0,043782507090094444
0,03737625093159357
0,029181675250042116
0,02189925855821648
0,016648344170683574
0,01246707527490659
0,00825002566844746
0,005883473216421816
0,008220124358927843
0,01170989188744895
0,014648447773267391
0,01750178161362038
0,020642430910690554
0,023221424145694256
0,023801826824808678
0,02177967768224596
0,01752589427759683
0,012836996718431337
0,008765391925590544
0,005058081557384275
0,000592743504111972
0,005118327054042393
0,0090836319088433
0,010641439106464694
0,01141621531955642
0,014679583438777446
0,019753692440514246
0,02310244721084005
0,023033351729865453
0,020757514954234387
0,01944305406036349
0,019983960425618376
0,02001050635330336
0,01829489655519582
0,016072464430980992
0,015109182199293393
0,01487202442185945
0,013056511949479951
0,009296017931825
0,007963584628700717
0,012167093990364418
0,015157077521855489
0,014331429388276598
0,014339577301313404
0,02033262850919666
0,025198339368640472
0,02326545870923903
0,017831025135913513
0,0203187810441385
0,02697466657528376
0,02774147355773457
0,022738388656485604
0,018799345728922355
0,01732175515237167
0,011910656237832941
0,001183480539634969
0,010650182054265184
0,01950377939930115
0,026650902193668804
0,03554135116433814
0,04390477792889081
0,04710069048119177
0,04508480635698448
0,04192922819447651
0,039915285348311354
0,03613120048334134
0,02970537218694437
0,022771403971113453
0,015373422445962666
0,009522806917620507
0,015624969347003791
0,024858966756713584
0,032137727357318104
0,0391755481353249
0,046347416984238825
0,04920789400114507
0,04530588024833645
0,03832815871247803
0,033249313679945304
0,028554030544814212
0,019903141965551287
0,008917211572077737
0,005162908956885232
0,0076091885726060566
0,008315384810918725
0,011337708702995816
0,014584205858665537
0,01678127764332602
0,020231264382139243
0,02307201205531912
0,02182999508966756
0,01756298162024644
0,016938130202462806
0,020243774819584122
0,020625124389411376
0,017989036455583376
0,016627145670841784
0,016318099426339768
0,013221216482665003
0,008689800308019927
0,011736292092681408
0,017918438919598014
0,021647263223212306
0,0235795900869592
0,024330036382878097
0,022142558554792177
0,015768394054584866
0,007832337402044299
0,0058787789085738605
0,009649808294541394
0,01439045325890544
0,019751930643574327
0,022659713100074617
0,021151146076366683
0,01679794198946718
0,013403534335489372
0,010908084346757578
0,00752397407739857
0,008833077382890256
0,015264573912948597
0,02141245799667999
0,026979265719727964
0,03194083472659133
0,034124518436056725
0,03230545324867613
0,02708374808789488
0,019525643845672812
0,010904050270019235
0,0054661230571692344
0,011846046020754926
0,021273306868679356
0,030455370878777036
0,036914413724071685
0,03794159968851803
0,03413412645093229
0,030182692558545648
0,029855122870588367
0,030698464336200295
0,03193636243810289
0,0355781054591846
0,03885725199662181
0,03803679662491377
0,03435534513968257
0,03145402466774253
0,02837846995780162
0,022046877527844486
0,01469100245876886
0,013027708747736648
0,018361163419361823
0,027627484360020233
0,03734005955261679
0,043105109479261244
0,04365600464785411
0,04303432165215098
0,043262396434587104
0,04021391197231745
0,031289619351525175
0,020775411034998616
0,014986241898111053
0,012963516465570476
0,01354264754259437
0,01954510624143142
0,02395911321621602
0,022283586210781692
0,01686829920062104
0,014730546777297732
0,01832895198696901
0,023481533385926855
0,028992910294383327
0,03253716030251665
0,03246994522795428
0,030283171223396983
0,028742039687633707
0,027303023905721258
0,02549855900323353
0,02511420640130358
0,02679246066954512
0,028114855070044527
0,029380493770291925
0,0333315989510773
0,03876434419173731
0,042725920143347494
0,045851229234510696
0,050505641124234654
0,05524095843526546
0,05657868554807773
0,05409098080839673
0,05049663902962978
0,04636815292971932
0,03914757272101531
0,0287535845176809
0,019535168547385358
0,014732970948721391
0,010174904359254732
0,004108319709632967
0,008199832744614706
0,012776765006943178
0,013832136020242983
0,01605944286634788
0,02178617200117058
0,026994039657255175
0,028721801296386785
0,026490591610800335
0,020586950372573493
0,012268384873468935
0,0034357704100130464
0,005625877814992812
0,016382549191425032
0,02933254583233026
0,04168367095051691
0,05001982387640233
0,053180234309016604
0,053121033729251976
0,05194400209565404
0,04907239949897199
0,042987133339286734
0,0348553927865452
0,02756179825423407
0,0229353630952377
0,02105898001843526
0,02096664883573038
0,02174561021327862
0,022809832541349842
0,023420612001009918
0,022348856171348002
0,01911858914127426
0,014800590530093787
0,01070655580711637
0,006828191289787196
0,0021473823816341776
0,003219046004816855
0,006216278860569723
0,005514653117731862
0,002480508770839659
0,006877306295930482
0,012877988690804202
0,01722985652391199
0,020099387513322905
0,021655370535876278
0,021045880994815074
0,01798152647957002
0,013080707599134522
0,008564142792400115
0,01237945206807951
0,02253390497069356
0,03293619252335706
0,04121780052407449
0,04826387520747949
0,05455161911965985
0,057922495077750845
0,05601605089057187
0,049026595979803696
0,04122049959468403
0,03682605476782735
0,03382197880887168
0,029875200695167903
0,027228086632780965
0,026116161124992366
0,022117249374586746
0,013514531460660856
0,0023968143560780947
0,008515431878591447
0,01924201137846317
0,0312535379741798
0,043222263789211054
0,05223934440778643
0,057256521351436294
0,059478186901701216
0,059192172027628616
0,05569585991649887
0,04853586058307634
0,039106464944484866
0,030089518693398883
0,023550264509109888
0,01976490538328787
0,01711788647646983
0,01409303615884918
0,011034095850024303
0,01241057443321837
0,019579845629489244
0,02830417122931456
0,03547763071591188
0,03959483270513388
0,040663015362205596
0,038377049519187134
0,031457480403524564
0,01918583185960419
0,0037784802452675843
0,01546525502858467
0,030816800881053028
0,044339376709728935
0,057231246110640364
0,06802817697042883
0,07303219440143117
0,07059441242987025
0,06263306328479594
0,05291516165495605
0,04314520103102794
0,032440297402921744
0,02101066341836129
0,010077474250488452
0,002280312168125902
0,006874575019604851
0,012775531396464928
0,019394562877502367
0,026612947730913696
0,0326932035831541
0,035813493236901424
0,036124965045130686
0,03529255705644045
0,03394336925250335
0,03003449859055835
0,022378218072048445
0,012679875202868146
0,004683571749614777
0,004182420294907006
0,008183166470962434
0,014935884053288311
0,02430581544643016
0,03326172818419975
0,03910899522457747
0,04234952868729938
0,0455987249841124
0,049460523371821295
0,05097855658668956
0,0486714669245751
0,044598343401943075
0,04207078992085348
0,03940566587804985
0,03292910700224651
0,022317177335687593
0,010843235113037109
0,005713819013471303
0,0139929033209119
0,02477715774331188
0,03398068370016889
0,038482338744596445
0,037809906927616786
0,033411079966919256
0,026769574437649043
0,018863797065621413
0,012058056488415717
0,01227099677215205
0,017472105530477993
0,021165396840692935
0,021371381142768958
0,020230518002431634
0,02192429092169035
0,02799393261763439
0,03639948784963848
0,04488153080702069
0,05076784514274217
0,05117117745451397
0,04471836916189538
0,03202619937225721
0,015173253479184275
0,006374450895271074
0,024117585541523087
0,04128810891213042
0,05475173388218767
0,06272143187497786
0,06439306927877281
0,061186795901735314
0,05505081844336362
0,047511223707444004
0,04047450791068785
0,036333423609093383
0,03684392375848827
0,04155592735550293
0,04872384140638409
0,05700624411282679
0,06499153935678906
0,0709827946161436
0,07327324604889199
0,07121576753879921
0,06587224561481457
0,058749767265637194
0,050128559038177874
0,0401969153779362
0,03105709657726244
0,027437762340856035
0,02978648821189269
0,03302677460580908
0,03375595265354274
0,031662276136281545
0,027289274285700046
0,022549806407775874
0,02125194489773551
0,02503797118853246
0,0308773961414752
0,03681614525488461
0,04311122634963994
0,0501617601772766
0,05621121878474087
0,05887145632141775
0,057148723973294645
0,05262390897035329
0,04799932828243223
0,04378884842916927
0,03842870017626275
0,03030562872143883
0,02013404175401281
0,009863192876559207
0,0035425751297975773
0,008475369954505934
0,016715574509836052
0,02598672089992447
0,03246315072629258
0,03201696135917529
0,026060274760574452
0,01813178538890176
0,014711127215162847
0,013924855167337723
0,010774507274067792
0,011376221662906383
0,016540986122093534
0,017261371590946886
0,011110491411627647
0,003251155096482995
0,01231739769535572
0,02396964010616314
0,03757837700158069
0,05086985929445921
0,05842503880644989
0,05689724217879603
0,0481252816227913
0,037105017042632804
0,026944044956126623
0,020708249783111095
0,02628269781929704
0,03638961875645633
0,0400011533863753
0,035768322772479565
0,028994149450140838
0,02249410179016086
0,012750602192408709
0,0026874268706493145
0,015426909347328252
0,020666453383513576
0,015501029243364084
0,009326336242184582
0,018534739395291808
0,029365782888608218
0,040720261203811337
0,05401751802758214
0,0641530600295938
0,06603258400864892
0,06060349087418392
0,05376991550415148
0,05158292588952207
0,05647385350770441
0,06506113456322013
0,070147374253092
0,06711799981552494
0,05707768624810662
0,04498098556353875
0,03429295028129429
0,027095310977853677
0,027803164753331437
0,0326106147767937
0,03297517703534652
0,02617864457157681
0,015597208500654129
0,005188794754172686
0,007647052856429314
0,02134364624081246
0,0352824295641371
0,04436330290320482
0,04550446690293194
0,039997961652723055
0,032260555087623384
0,02628681903634667
0,024614856074420297
0,029272936164299553
0,0379005115730618
0,04512528008624526
0,04849231768473617
0,04889813737824113
0,04760150038039919
0,04325659595807208
0,03526199015363307
0,02602578745407563
0,01891919822607048
0,014918910283795305
0,013829177545765053
0,013197858704153324
0,00803441692101137
0,004268356294281967
0,017857037869366207
0,027405051261551582
0,029288924778860335
0,028951877742745453
0,03416897332711888
0,039371705403281644
0,03745433700452385
0,030454424761022086
0,024610264373129628
0,018982277237685585
0,008363454069863618
0,007999603994809293
0,020461366112837966
0,026179569880769027
0,02572546625019351
0,02488215408001119
0,028456590566126566
0,037219302836766915
0,04731632276098915
0,05235876678319528
0,04879495598438473
0,040799384290903434
0,03526462094979097
0,030567692105205317
0,020685169703280944
0,013213068397140957
0,023582184055074458
0,03277788072811371
0,03408005905757087
0,030176116539422655
0,026196674340518852
0,02388458010255985
0,019627950911550243
0,010404271980804604
0,0032326483375869513
0,017059574886081952
0,026218030949919018
0,03049176618006985
0,034159317768460276
0,038516645965617186
0,03765761201707872
0,02852255756515027
0,015670548925529944
0,007825246175629437
0,0028178800105507027
0,010173452165662431
0,02430767249044789
0,033555348450916817
0,03500479932697178
0,033913316540510656
0,03533608058269334
0,034662846015266154
0,028733664087459584
0,02495744298771538
0,029855898233575064
0,03769796859245045
0,047628106026540565
0,05854885355582348
0,064324663775207
0,06000261382699275
0,04786628845323415
0,03536376942138713
0,027407248627060468
0,01965434796102012
0,009714463266318259
0,011512978875850805
0,020025224311433283
0,022412344930726396
0,018587686727641512
0,013273956927308945
0,008552647972439043
0,0032388911749901108
0,016776000862249535
0,03383720892961309
0,04632962395441744
0,050438135970111875
0,04825438794253441
0,04499813099192665
0,04103861443238349
0,03189701938498073
0,01693148734458733
0,005774532435235677
0,013217487553684956
0,015244517011498305
0,011209145531344455
0,007849815405766986
0,007664163148116853
0,005101406192798537
0,006720369739450586
0,015580238111259484
0,02529528280615899
0,03333001645165153
0,03795597372530962
0,03931727658664129
0,03893513229797876
0,037225238147548766
0,0326168135635271
0,024963082599708305
0,02044948179728707
0,02382606107359845
0,02792430131131459
0,028196130967510762
0,025669459641753132
0,022696714002177074
0,01998437572275824
0,016970246213700413
0,013246885457854171
0,009314228903974592
0,006870385583837729
0,007452692782900921
0,008753662640433634
0,010184085127373147
0,010691372762285118
0,008121076740150987
0,005472215169097438
0,011130131798868848
0,01697779646353773
0,018817070278860044
0,017587647222061603
0,016770417586149063
0,01633078470582567
0,014843469529523732
0,013888151399059469
0,01447343451978534
0,014302837668844852
0,012087757599177771
0,009129849243659028
0,007166972306479531
0,0063434414265783135
0,005306367006728015
0,00538098069516203
0,01046942697202392
0,017462981031978957
0,022325101522002393
0,023661219141205166
0,023685320162391204
0,025134547025163864
0,0268972361341939
0,027572368686287065
0,029188657155345635
0,0331239844887959
0,0369729259589027
0,03797175140276185
0,037108180672560165
0,03678106451975387
0,038015994628560944
0,03923694861009725
0,03760388073962554
0,031212743464444703
0,02057078980612579
0,009366862548112592
0,002615171707781696
0,004676486957454237
0,011211911978095969
0,01925312793310145
0,0244381951676849
0,025054625346737754
0,02220176693627088
0,018647152320320316
0,015760344955250465
0,015035533467388484
0,017971161600379894
0,020661345281515153
0,01870682441064772
0,01189125695915059
0,0038998695408289526
0,0036336583832697025
0,006266889574330484
0,011872394509415327
0,01928448797184453
0,023013293522632303
0,02113541846369377
0,0164789388564432
0,01392630506922125
0,011284440492280173
0,004743801659053797
0,006834889263925621
0,01483384903586103
0,01912239598997483
0,022752634877096407
0,02838807559204598
0,032738674001085925
0,03190967642193209
0,027037739408311157
0,022163721085456292
0,020450645219032542
0,023796855939890765
0,030780644061352114
0,036719799501938995
0,038734130131266496
0,038039512290300774
0,03706997781416322
0,03799699367423778
0,04329676484299197
0,05322617548590246
0,06288103918576692
0,06875012575286533
0,07110478293267572
0,06891346096724678
0,058208192159508516
0,03876011639039115
0,02556380999184224
0,03787168587502894
0,05219526727286887
0,05707650796289886
0,0538394443515283
0,04646658337062916
0,03889367996214192
0,03712453037037106
0,04138635683252059
0,0423114454172678
0,03512658991608869
0,022602411462496582
0,009961894778183333
0,006366660583578908
0,018745471870846502
0,030266583626485884
0,0339470129621745
0,02664489997041251
0,012349678057819634
0,009956795479922896
0,020603921407085328
0,027767137281041906
0,033645835549929996
0,038653240243476245
0,040570394756457455
0,03936541767974809
0,03923420595911093
0,04405440634412336
0,05164242021215539
0,05707219956196572
0,05724984525155696
0,05184076030145109
0,04345392949803721
0,035533139889714266
0,028000107596102358
0,02077188134872608
0,019882675953694084
0,026365333073309245
0,031372034190842495
0,03133654208958852
0,02629128756473679
0,018960375114033205
0,015794017096931467
0,020744259365338497
0,028219404706715183
0,03473241138590513
0,0409080459690221
0,04660412165500529
0,048700356603851656
0,04404664185579421
0,032980487175856506
0,01932915511983149
0,008680729361932467
0,008726015801148464
0,01320686628666805
0,016962753933769486
0,020430744623002588
0,022674843886746555
0,021359847905198164
0,015687812517451653
0,012967328990648681
0,025127908937277153
0,0397993292506568
0,04904498328834611
0,05071706259746197
0,047070018822479825
0,04061938902912198
0,03240592944017735
0,022486782072717044
0,013809528630951858
0,011312166252580176
0,01245384525861473
0,01519099773333363
0,022210312908350148
0,031574558665457816
0,040458772621465286
0,04660328345842622
0,04928582073035478
0,04873371768191474
0,044140908324932705
0,03532615094816495
0,025427736805634944
0,023045191881010414
0,02957111550579283
0,0347561031512525
0,03260548855284948
0,02391124434732635
0,014478529498793857
0,014916052353291095
0,022160538523977112
0,026017265965054586
0,02317237697019358
0,016640158746347597
0,0188000107385005
0,0312144862648451
0,04194556404553428
0,045182007609833715
0,03956396937199039
0,0263892532799009
0,008412014380031432
0,01431304205293283
0,033098647779182463
0,04469504165326123
0,04486882696599075
0,03486987030161762
0,0297183015030551
0,04605836666256261
0,06653790236649754
0,07849024874446307
0,07798649943789854
0,0652074144596587
0,041967197163254824
0,013031534230652377
0,018518828094417294
0,03983911517813677
0,04876104755082187
0,04524777559991038
0,03449910879816307
0,023988612083157942
0,021483066169836914
0,02772177808173124
0,03352203095129979
0,03373212335523687
0,03088685624715278
0,029925889373961033
0,027780780660180242
0,021894075043857462
0,024081939608247973
0,03474340173808716
0,038053888900403295
0,02914346503616067
0,01768201726084669
0,023345446901931216
0,03131152750018952
0,03061034260966505
0,023438758789007374
0,014452284261008141
0,013947882401754605
0,025418194797933343
0,035926529569668235
0,03861866040832
0,03413872702610494
0,02958812385851033
0,028222681294029682
0,02368151382294107
0,012882602029502168
0,005328991744799146
0,013993715559419759
0,020218583572225845
0,023484729473114026
0,022454235594182498
0,015299586243784316
0,012431692815913786
0,025063145475162266
0,03536176631588447
0,03836987561798721
0,03742233355065953
0,03732457890059612
0,035286783303297875
0,026801929021308412
0,013567057804389967
0,0062065794092940035
0,012283128696318476
0,015348992581677434
0,013239294371742191
0,005274864648204838
0,008113948311261606
0,022145659665596035
0,029894047308109076
0,02592852027322262
0,012328600225210035
0,020308874535109288
0,04058085878050623
0,052023178948506624
0,051858347241203674
0,04370119346524791
0,03583500993411803
0,033385540856710194
0,03122873273721105
0,026003966987645448
0,02882056919756457
0,047975989241512945
0,06868519783533618
0,07838212146988709
0,07133864358005697
0,04951806067424459
0,02758845790714018
0,036592097914051665
0,053754438600715646
0,0579095101650213
0,0475849352513843
0,0281090928649037
0,009107214092550803
0,014379996474349128
0,02378387638345696
0,027563180919502998
0,028805546844879192
0,031009020456454872
0,034542941606540076
0,039075592965048374
0,045376072661319274
0,05155816223787782
0,051817569015084684
0,04250184904630743
0,025225590144942862
0,011071244683164363
0,02190267326993058
0,03646042688918353
0,047853560992185476
0,054236662701336286
0,05384196880402127
0,04845843078199533
0,041481488334279684
0,03213445433282512
0,01704600447250433
0,006402305717790626
0,021355997385557202
0,02835051490791468
0,026344617865528486
0,025995697398005457
0,031158450157764032
0,033069585274437756
0,03247257765819347
0,036245943890053284
0,03976929672776486
0,03523708268497051
0,02286648580993921
0,00972704206969933
0,00907518346611541
0,012820561075525717
0,011924738394656733
0,006509005411143397
0,007135251950138385
0,014799474287519335
0,016734877122575254
0,01632563872989842
0,030954729597422254
0,05190818172004749
0,06608924416691477
0,0686618292336919
0,06252528956940137
0,0529385764239853
0,04119308308026707
0,026610855768402737
0,011681750459426583
0,002312672837171483
0,007498498863545504
0,01475086159322606
0,02101621227774255
0,021628548000338556
0,017134488854795044
0,01694239949055777
0,024580454637962906
0,029903738317789648
0,028438839935401954
0,02016680227020777
0,0067190804252169984
0,009907800460122879
0,024539767121558694
0,03525371219710739
0,040188814923343044
0,039007005870021975
0,03278555139075012
0,02404073552709414
0,01758620103449106
0,015388688647030396
0,013364957254756737
0,010176292328083335
0,008052454108967011
0,007060212356144739
0,017575083322062205
0,036207044776055
0,05375844587749809
0,06262989897151537
0,05847389952775384
0,042058385944596766
0,01880809149265334
0,009174417774302682
0,024571274762330016
0,029626630332545763
0,022379661115835624
0,010585925930707554
0,022441600726196775
0,04040234872209423
0,05175531754313131
0,05416611697214306
0,047808075862021675
0,03578885023103512
0,024726119041607413
0,02356489479980793
0,028128289910025802
0,027437369512272484
0,019047424182851845
0,006305147348833354
0,014112137877281822
0,025993708478990386
0,030471099227261017
0,02701324913242687
0,017622733817173164
0,0074278075570605884
0,01163631582450172
0,023849840390125335
0,03156898685084226
0,02952941546583785
0,017374782570292444
0,019321718455662672
0,04261838329196512
0,06085734334421022
0,06541369755955397
0,05453546353613953
0,0338989825865266
0,02122899401475159
0,030396177421222213
0,03437027509657493
0,024546053509498917
0,011449719905748413
0,02445476234353568
0,036493791409984516
0,03699233222350905
0,03149476842224625
0,029712091095379704
0,030684728227989927
0,02671243391175652
0,01625844655438011
0,002849300136246784
0,013746122362948678
0,0256041787463053
0,03200053224286681
0,036220993923935185
0,04717347100732015
0,06448787262842598
0,0776526909818371
0,07851998189262709
0,06600811152167489
0,04461344337731395
0,02097740703067963
0,007811814245086848
0,022400766659551475
0,034515995823248616
0,0382678670275966
0,032350915679532834
0,01932318656245089
0,009880065049058653
0,01658671307031562
0,021774397021968473
0,020178612400982572
0,013111038849241294
0,003168467510625513
0,0146119001378192
0,03240034074719031
0,04861311247854685
0,05809557508289002
0,05694108074406072
0,04459198396542193
0,0287154235928441
0,030922046938587716
0,04481575602978634
0,048026698099873366
0,034948102368546244
0,012131471226437025
0,02080108873585152
0,03885422282625549
0,0425200350290052
0,03164529816672062
0,013879411403991519
0,016194691847745937
0,0315997849802059
0,04004868287046441
0,04025690685443543
0,03480697723377487
0,028379074371526418
0,02854876308924124
0,03796951378770804
0,050585731209579834
0,061806632044407735
0,06857994856233866
0,06708950635066763
0,05341692447943817
0,027388172177120047
0,005694818904264851
0,03661478573399449
0,0561001546298893
0,059488497577323524
0,051251339740880725
0,042389274043847604
0,03918032183408318
0,034252378235925106
0,02165067975981053
0,009290934080979953
0,022130147871569583
0,03186046613780942
0,02867411455375547
0,014969614876406166
0,013822021069527068
0,02670826985799954
0,03095967760305897
0,030498913610069907
0,03815619575414766
0,04999604860914308
0,055459403031174366
0,05234609609218991
0,04626696554396545
0,04445075143743536
0,05068125784140944
0,061371839439833556
0,0678566689248504
0,06207317511625642
0,042151292745662594
0,01653932423983375
0,02259284412245563
0,03883879255657912
0,04022948025980345
0,028895308097978398
0,02390452253895544
0,038612937622509384
0,05116858641785827
0,051393716125736115
0,04019617683198229
0,027937133972000972
0,03001915252746428
0,03697387369843745
0,033886714887181923
0,0167325294068461
0,01089115320685268
0,040386852730593954
0,06107431866321779
0,0653861403594489
0,05355234818278109
0,034386269049887015
0,02103271815992409
0,01784052982555234
0,018801279122268675
0,02965334675505721
0,044332878138193386
0,05195812750102928
0,0486220682714517
0,03574745894187887
0,02208519674339077
0,026004001322129894
0,03672818955421293
0,03811315123518973
0,026537992577905383
0,007076581130345329
0,018542622341828012
0,03348696933704285
0,03620419717347788
0,026978044432286827
0,01040796734010888
0,007831082945744158
0,019122936755819928
0,01981599034921469
0,012177996257416224
0,02267086057344206
0,04559191865425543
0,06249745073233216
0,06473730557597755
0,050005248399497895
0,02371036106092004
0,015251067001590382
0,03750326390941557
0,0486892290396903
0,04607806424316
0,03439309364338967
0,021466765868188787
0,013876602417872728
0,013214894058586906
0,015291450141716838
0,016056008755579144
0,01210465527048255
0,0025667316627844858
0,012441473311825406
0,026215859880911345
0,0352439463245056
0,037965869279534825
0,03812821235644421
0,04102364561313456
0,04527119990293327
0,04510076836828848
0,03856452378737994
0,029338077195625728
0,021315994591631172
0,013233411729686376
0,00382908708041532
0,006349675458428759
0,016706359401903074
0,029510790444646082
0,04377446303815106
0,05291044192786985
0,05097104814119606
0,038296730321655814
0,026163064877178854
0,029717331168135946
0,03641515857702006
0,03548445341552623
0,029649119340895036
0,03164947669836635
0,04786594939097803
0,06681088948686513
0,07672528629884907
0,0700864973717094
0,04546844024513354
0,01660706527429203
0,04134397930414037
0,06582613149715155
0,06411066053330325
0,032364703984368755
0,020955560073949584
0,07306201318099946
0,10385750171033996
0,10001273184620292
0,06649351144736267
0,03627004935557678
0,053535803444929614
0,06622932986949581
0,05410624129477002
0,031970299356987274
0,029456260564710537
0,03369658085043941
0,026231882446516152
0,022054488114411505
0,03019504477721672
0,033813340299885745
0,038062795960580875
0,051430837868943965
0,06089246953595975
0,054719591681099945
0,03212107924253527
0,003934495769007773
0,031054756088644508
0,05149850909404575
0,05712443258000498
0,04855745464497493
0,035788365507193755
0,034182061620752366
0,03699497081569309
0,03115329192305027
0,02589598223802264
0,03929905911507375
0,05409127909918927
0,056836494991513935
0,046200094934665016
0,028046642269770272
0,010807763229992936
0,005917015096587438
0,006621823406063049
0,007046268012674494
0,018729340628453314
0,02851806064374398
0,031079506352165692
0,03212555836247512
0,040177315306244396
0,047467942724266576
0,04536277553491321
0,037648512079244356
0,03566313314084718
0,03427843357411377
0,02193323393137746
0,001962879268273282
0,018545466869199726
0,028341286567241355
0,037970273180098525
0,057384685316025946
0,07308229825239826
0,07111595251594417
0,05172536653592817
0,029752621687716828
0,02362174410206545
0,021909629409188763
0,012481037374490368
0,0038488487873620074
0,007910222827320432
0,02881888145722507
0,0595250516986599
0,08485114708658334
0,0915615221652289
0,07608416355783765
0,04666019229930519
0,01781701573804496
0,008862699387514278
0,02282659227728423
0,039690265807309506
0,04968746040449217
0,04436966425781239
0,03002277407752786
0,03742129503965553
0,05487588415298325
0,055766459149078414
0,03714664437389624
0,011310649007782055
0,01455223449323479
0,019607633495784246
0,01211030506040034
0,013425750479063263
0,020175410911522775
0,01662526577781996
0,005770128293038968
0,0037234809210016156
0,008469677007502608
0,02012732239220265
0,034645772948127436
0,04082806123737025
0,03399281781493479
0,018658019641389606
0,005115802945058987
0,0020344641108093553
0,007364510913293926
0,01544345988330027
0,014749613215219613
0,0022604336477886665
0,029165994629792483
0,059144242692342024
0,07922858951345337
0,08234782811893943
0,06875699377798586
0,04617004105054656
0,028410146691278074
0,02787148153494935
0,030123300680113638
0,024902578875448982
0,014685926031550195
0,007482740011218704
0,01975711060534962
0,036434392722838924
0,045596681830764055
0,038759170090801896
0,015416547241551176
0,014684513709476522
0,035303034673048246
0,03596390148401992
0,017879756113795327
0,007626037609630855
0,02604810276754676
0,03555853530545557
0,046942931686522936
0,057203999541417534
0,05054422359311974
0,021910583492710245
0,02716583934503859
0,062666625414123
0,07525936250920111
0,059830144569611374
0,027607277587746396
0,010741606810176826
0,03057466565676594
0,0504515373885789
0,07543230987674544
0,0944954989349719
0,09421099014746187
0,07198464451292137
0,039059201224266475
0,02432163546970442
0,03691311515390532
0,04287157356606906
0,04016337471849524
0,034921612946087595
0,030557089814000918
0,025795822319794912
0,02141382258884032
0,019375378583766947
0,018558752446270865
0,016044458484931808
0,01107289350126208
0,01074705279973969
0,021769997982827777
0,03644946732176612
0,04820008085019908
0,05103204728419844
0,041766202439458444
0,02679445144128587
0,030737035329530663
0,04741067271868907
0,0528163553745087
0,04132176405289666
0,018615028951005638
0,017967184700438718
0,03776548812587435
0,047047834273691955
0,04413747074756141
0,03412536558034817
0,02406939706343661
0,018965318165551574
0,019214776076609978
0,02277389890437055
0,025110960628817968
0,0209976743848971
0,008657964168682178
0,010275725042460998
0,02807046105423243
0,038699838055555214
0,03813888776931561
0,027373249232959987
0,014585831497736745
0,020195293056610424
0,03116627256082081
0,03579558163570912
0,03528856686743993
0,034271194639722724
0,03403114634889412
0,03028618866335963
0,01880206224234617
0,0016574310703451332
0,02745950777167475
0,052685003641204535
0,07071291558820755
0,07782148300023585
0,07490781953822558
0,06630561106244393
0,05508002879017311
0,041200000183365
0,026169371519960558
0,015098075702489132
0,008750014545327273
0,007751352745262765
0,024890460046907724
0,04132130346773126
0,0467620034570311
0,04050350173570459
0,03374312743741634
0,03409856906644037
0,027455300934132596
0,013663728370230286
0,04063774741591463
0,07188041765622732
0,08350858008380911
0,06802186254124308
0,03267900744370461
0,016923214693872386
0,04395410880499548
0,053722725710350853
0,04517738367082786
0,02792756618905929
0,018908442971482572
0,024150875959090472
0,02414704697885718
0,01129270180614089
0,01714566235493691
0,04107214351837944
0,05146197903977151
0,040147466538649895
0,018730381459858593
0,03268387318530106
0,046457781764937645
0,0354565358981163
0,004511183338922067
0,03013109400563762
0,045814876374295176
0,03413351284744797
0,011465071745382811
0,0373344344885649
0,05307202433352745
0,04411936559966025
0,027771498244382704
0,03645321527037239
0,04319555558235249
0,03539245048947451
0,04298700954010044
0,06650133413815562
0,07520443327280336
0,06002798486787051
0,03090123518628941
0,018369024088915522
0,026784469762949622
0,020558435248565845
0,0016629686239128657
0,018672984773163894
0,030158774025545187
0,032650324870842164
0,03208843396467898
0,03159172387714148
0,0270121157788053
0,021167974413077207
0,02706855292699049
0,0392630057740154
0,046759773211377656
0,04715680433014302
0,043107320992157354
0,03804490825091343
0,033603710940983494
0,028734125938496162
0,020292116998826566
0,005320804396903348
0,01634023268668343
0,03822173748878397
0,05304944478981633
